Number,Surname,Other Names,Title (i.e. Mr),Date of Birth (i.e. YYYY/MM/DD),Civil Status,Address,Postal Code,City,Phone,Alternate Phone,Email,National Id,Religion,Gender (i.e. M or F),Next of Kin Othernames,Next of Kin Surname,N.O.K Phone,N.O.K Phone 2,Ragistration Date
1,Chebet ,Kaylie,,,,,,,,,,,,,,,,,
2,Kemei ,Chelagat,,,,,,,,,,,,,,,,,
3,Rono ,Evans,,,,,,,O724445389,,,,,,,,,,
4,Chepnjor ,Margrate,,,,,,,O729221687,,,,,,,,,,
5,Kolil ,Rael,,,,,,,O724399290,,,,,,,,,,
6,Solke ,Utson,,,,,,,O733932040,,,,,,,,,,
7,Jirongo ,Solomon,,,,,,,O723650179,,,,,,,,,,
8,Obare ,Jessicar,,,,,,,O710911988,,,,,,,,,,
9,Kemboi ,Ruth,,,,,,,O722953900,,,,,,,,,,
10,Okenda ,Daniel,,,,,,,O711717366,,,,,,,,,,
11,Kipruto ,Nancy,,,,,,,O713217064,,,,,,,,,,
12,Samat ,Anoushka,,,,,,,O773394922,,,,,,,,,,
13,Waithera ,Brianna,,,,,,,O722790251,,,,,,,,,,
14,Baraza ,Mosses,,,,,,,O720962758,,,,,,,,,,
15,Ghalib ,Fatma,,,,,,,O721488404,,,,,,,,,,
16,Woody Mutambo,Alfred,,,,,,,O722905609,,,,,,,,,,
17,Mmbati ,Tyronne,,,,,,,O727885111,,,,,,,,,,
18,Leitich ,Elizabeth,,,,,,,O722284914,,,,,,,,,,
19,Chepchirchir ,Loise,,,,,,,O728317136,,,,,,,,,,
20,Baraka ,Nehemiah,,,,,,,O721586653,,,,,,,,,,
21,Chepkemboi ,Angela,,,,,,,O721357786,,,,,,,,,,
23,Osman ,Hamdi,,,,,,,O726526268,,,,,,,,,,
24,Obare ,Geofry,,,,,,,O722765966,,,,,,,,,,
25,Muthoni ,Martha,,,,,,,O726778500,,,,,,,,,,
26,Wangare ,Anne,,,,,,,O723444470,,,,,,,,,,
27,Cheruyiot ,Rachael,,,,,,,O723886805,,,,,,,,,,
28,Hassan Mohammed,Daud,,,,,,,O727116644,,,,,,,,,,
29,Chebichi ,Mary,,,,,,,O720875415,,,,,,,,,,
30,Chelagat ,Gayle,,,,,,,O720875415,,,,,,,,,,
31,Lelei ,Rose,,,,,,,O723369140,,,,,,,,,,
32,Cullen ,James,,,,,,,O721740858,,,,,,,,,,
33,Arusi ,Lamech,,,,,,,O724275306                                              ,,,,,,,,,,
34,Yusuf ,Abdi,,,,,,,O722667796,,,,,,,,,,
35,Loltome ,Joseph,,,,,,,O723644012,,,,,,,,,,
36,Soprin ,Nelly,,,,,,,O710196010,,,,,,,,,,
37,Wafula ,Rebecca,,,,,,,O711719559,,,,,,,,,,
38,Koech ,Anita,,,,,,,O724046206,,,,,,,,,,
39,Njeri ,Britney,,,,,,,O722144762,,,,,,,,,,
40,Biwott ,Zipporah,,,,,,,O726473543,,,,,,,,,,
41,Korir ,Vahid,,,,,,,O728733694,,,,,,,,,,
42,Muyekho ,Jones,,,,,,,O720942277,,,,,,,,,,
43,Koech ,Robert,,,,,,,O721825244,,,,,,,,,,
44,Wafula ,Faith,,,,,,,O703549636,,,,,,,,,,
45,Kosiyae ,Shadrack,,,,,,,O723411613,,,,,,,,,,
46,Chebet Ketter,Ica,,,,,,,O721517590,,,,,,,,,,
47,Rerimoi ,Jane,,,,,,,O720692538,,,,,,,,,,
48,Kandie ,Immaculate,,,,,,,O722448880,,,,,,,,,,
49,Keittany ,Esther,,,,,,,O722598874,,,,,,,,,,
50,Scott ,Allan,,,,,,,O724805398,,,,,,,,,,
51,Maketso ,Alexina,,,,,,,O718211990,,,,,,,,,,
52,Maritim ,Sophie,,,,,,,O720530895,,,,,,,,,,
53,Mwinamo ,Maurine,,,,,,,O725373008,,,,,,,,,,
54,Rotich ,Boaz,,,,,,,O723973468,,,,,,,,,,
55,Kibet ,Tai,,,,,,,O720530895,,,,,,,,,,
56,Kemboi ,Abel,,,,,,,O720645363,,,,,,,,,,
57,Tabut ,Joram,,,,,,,O704627337,,,,,,,,,,
58,Biwott ,Nancy,,,,,,,O727741384,,,,,,,,,,
60,Kipkosgei ,Morgan,,,,,,,O714870230,,,,,,,,,,
61,Nur ,Aden,,,,,,,O722279041,,,,,,,,,,
62,Omar George,Henry,,,,,,,O721917120,,,,,,,,,,
63,Chelimo ,Perpetua,,,,,,,O722301684,,,,,,,,,,
64,Nahashon ,Kathlene,,,,,,,O726067206,,,,,,,,,,
65,Kosgei ,Daniel,,,,,,,O716944990,,,,,,,,,,
66,Kipchumba ,Brian,,,,,,,O725908813,,,,,,,,,,
67,Mongare ,Priscah,,,,,,,O706615086,,,,,,,,,,
68,Ole Roge,John,,,,,,,O721807628,,,,,,,,,,
69,Chelagat ,Sylvia,,,,,,,O705242260,,,,,,,,,,
70,Kwanya ,Mary,,,,,,,O726107544,,,,,,,,,,
71,Kiprono ,Joseph,,,,,,,O721286402,,,,,,,,,,
72,Yebei ,Jonathan,,,,,,,O722375731,,,,,,,,,,
73,Kirikwanny Lemkoi,Mrio,,,,,,,O708765633,,,,,,,,,,
74,Kimutai ,Mark,,,,,,,O713320888,,,,,,,,,,
75,Jelimo ,Susan,,,,,,,O725527158,,,,,,,,,,
76,Musalia ,Victor,,,,,,,O724663423,,,,,,,,,,
77,Senewa ,Liz,,,,,,,O720251751,,,,,,,,,,
78,Jemutai ,Sylvia,,,,,,,O710754956,,,,,,,,,,
80,Murray ,Irene,,,,,,,O717221924,,,,,,,,,,
81,Tito ,Rose,,,,,,,O718708472,,,,,,,,,,
82,Leitich ,Imelda,,,,,,,O725893467,,,,,,,,,,
83,Leitich ,Gilbert,,,,,,,O705670921,,,,,,,,,,
84,Jerotich ,Sheila,,,,,,,O716954381,,,,,,,,,,
85,Maritim ,Jerry,,,,,,,O723904949,,,,,,,,,,
86,Wangare ,Zuriel,,,,,,,O722964289,,,,,,,,,,
87,Diero ,Belinda,,,,,,,O715672972,,,,,,,,,,
88,Ogeso ,Magdalene,,,,,,,O707737148,,,,,,,,,,
89,Kedero ,Agatsira,,,,,,,O728115117,,,,,,,,,,
90,Waithera ,Ecrastica,,,,,,,O720407386,,,,,,,,,,
91,Kitui ,Joyce,,,,,,,O722604022,,,,,,,,,,
92,Kiragu ,Jeremiah,,,,,,,O720821710,,,,,,,,,,
93,Boldrini ,Mauro,,,,,,,O722607743,,,,,,,,,,
94,Njoki ,Tiffanie,,,,,,,O722964289,,,,,,,,,,
95,Kipkosgei ,Alex,,,,,,,O721252645,,,,,,,,,,
96,sawe ,Joyce,,,,,,,O721428693,,,,,,,,,,
97,Mutai ,Tabitha,,,,,,,O724957224,,,,,,,,,,
98,Mageka ,Joseph,,,,,,,O711323464,,,,,,,,,,
99,Kiptoo ,Peter,,,,,,,O725327952,,,,,,,,,,
100,Wangeci ,Anna,,,,,,,O726783077,,,,,,,,,,
101,Wanangwe ,Amos,,,,,,,O716186768,,,,,,,,,,
102,Kariuki ,Eva,,,,,,,O720761045,,,,,,,,,,
103,Kwambai ,Wilson,,,,,,,O724778888,,,,,,,,,,
104,Birech ,Jonathan,,,,,,,O712143778,,,,,,,,,,
105,Kiplimo ,Ian,,,,,,,O734883871,,,,,,,,,,
106,Kiprotich ,Wein,,,,,,,O721710453,,,,,,,,,,
107,Chemutai ,Valentine,,,,,,,O725344377,,,,,,,,,,
108,Soet ,Tawarar,,,,,,,O712038838,,,,,,,,,,
109,Kipchumba ,Emmanuel,,,,,,,O720759514,,,,,,,,,,
110,Justus Maril,Kemboi,,,,,,,O721437350,,,,,,,,,,
111,Baraka ,Ethan,,,,,,,O704742898,,,,,,,,,,
112,Kipyator Kirui,Eddie,,,,,,,O720967074,,,,,,,,,,
113,Chepkech ,Noah,,,,,,,O706040554,,,,,,,,,,
114,Jerop ,Irene,,,,,,,O722912371,,,,,,,,,,
115,Jeruto ,Winnie,,,,,,,O718918901,,,,,,,,,,
116,Kimutai ,James,,,,,,,O723849296,,,,,,,,,,
117,David ,Motelin,,,,,,,O721883562,,,,,,,,,,
118,Mwaura ,Ibrahim,,,,,,,O727660248,,,,,,,,,,
119,Bii ,Cherono,,,,,,,O714415017,,,,,,,,,,
120,Atieno ,Jackline,,,,,,,O725827122,,,,,,,,,,
121,Kioko ,Emmanuel,,,,,,,O721386292,,,,,,,,,,
122,Cherotich ,Marion,,,,,,,O725913460,,,,,,,,,,
123,Makatiani ,Benunity,,,,,,,O713982789,,,,,,,,,,
124,Kiprop ,Dancan,,,,,,,,,,,,,,,,,
125,Togom ,Thomas,,,,,,,O715664424,,,,,,,,,,
126,Okwany ,Carolyne,,,,,,,O721525264,,,,,,,,,,
127,Kibet ,Julius,,,,,,,O722422974,,,,,,,,,,
128,Cherono ,Beatrice,,,,,,,O725969929,,,,,,,,,,
129,Oyungu ,Anthony,,,,,,,O722624353,,,,,,,,,,
130,Mumbi ,Gloria,,,,,,,O722624353,,,,,,,,,,
131,Wanjiru ,Lucy,,,,,,,O712994525,,,,,,,,,,
132,Jesang Mutai,Anne,,,,,,,O721418461,,,,,,,,,,
133,Kipkech ,Valin,,,,,,,O713973474,,,,,,,,,,
134,Atsango ,Esyline,,,,,,,O712853636,,,,,,,,,,
135,Kisobo ,Dinah,,,,,,,O712853636,,,,,,,,,,
136,Malande ,Hilda,,,,,,,O723629159,,,,,,,,,,
137,Malande ,Mosses,,,,,,,O722898833,,,,,,,,,,
138,Kwambai ,Amos,,,,,,,O722128245,,,,,,,,,,
139,Kipkoech ,Esbond,,,,,,,O726723084,,,,,,,,,,
140,Kandie ,Loise,,,,,,,O722912371,,,,,,,,,,
141,Kibet ,Elvis,,,,,,,O722912371,,,,,,,,,,
142,Odhiambo ,Lukas,,,,,,,O717400534,,,,,,,,,,
143,Onyango ,Jane,,,,,,,O721602502,,,,,,,,,,
144,Murrey ,Felix,,,,,,,O720875415,,,,,,,,,,
145,Akelo ,Rebbecca,,,,,,,O727903904,,,,,,,,,,
146, ,h,,,,,,,O729417580,,,,,,,,,,
147,Lumbasi ,Hillary,,,,,,,,,,,,,,,,,
148,Rono ,Hosea,,,,,,,O721934200,,,,,,,,,,
149,Rianga ,Nicholas,,,,,,,O720228143,,,,,,,,,,
150,Tanui ,Moses,,,,,,,O721304444,,,,,,,,,,
151,Ngugi Nganga,Jayden,,,,,,,O729477722,,,,,,,,,,
152,Chemurgor ,Harriet,,,,,,,O723503513,,,,,,,,,,
153,Bittok ,Eunice,,,,,,,O720052976,,,,,,,,,,
154,Mukhwana ,Maleen,,,,,,,O724390958,,,,,,,,,,
155,Sitienei ,Loise,,,,,,,O721410258,,,,,,,,,,
156,Kabon Mitei,Susan,,,,,,,O723372165,,,,,,,,,,
157,Kipchumba ,Jonathan,,,,,,,O720311137,,,,,,,,,,
158,Mwende ,Josphine,,,,,,,O729557012,,,,,,,,,,
159,Wangeci ,Felishana,,,,,,,O729557012,,,,,,,,,,
160,Muthui ,Annah,,,,,,,O722849590,,,,,,,,,,
161,Wachilonga ,Willis,,,,,,,O724123800,,,,,,,,,,
162,Nyawande ,Michael,,,,,,,O727357535,,,,,,,,,,
163,Moi ,Veronicah,,,,,,,O720706374,,,,,,,,,,
164,Kigen ,Edwin,,,,,,,O727664617,,,,,,,,,,
165,Chemjor ,Joy,,,,,,,O721596034,,,,,,,,,,
166,Ochieng ,Nicholas,,,,,,,O721596034,,,,,,,,,,
167,Kipruto ,Gift,,,,,,,O727992971,,,,,,,,,,
168,Mabachi ,Hedwick,,,,,,,O721323728,,,,,,,,,,
169,Biwott ,Jennifer,,,,,,,O722863035,,,,,,,,,,
170,Ludenyi ,Patrick,,,,,,,O721918659,,,,,,,,,,
171,wisdom Vogen,Ian,,,,,,,O721918659,,,,,,,,,,
172,Kamau ,Peter,,,,,,,O712309985,,,,,,,,,,
173,Mudiri ,Morns,,,,,,,O721356696,,,,,,,,,,
174,Atamba ,Josephine,,,,,,,O702442696,,,,,,,,,,
175,Chebet ,Karen,,,,,,,O722607743,,,,,,,,,,
176,Busienei ,Noah,,,,,,,O703301099,,,,,,,,,,
177,Kositany ,Caleb,,,,,,,O722530765,,,,,,,,,,
178,Odhiambo ,Alvine,,,,,,,O723670159,,,,,,,,,,
179,Koech ,Jane,,,,,,,O702216485,,,,,,,,,,
180,Wanjiku Mwangi,Blessing,,,,,,,O723663287,,,,,,,,,,
181,Mongare ,Joan,,,,,,,,,,,,,,,,,
182,Ngeno ,Michael,,,,,,,O711571044,,,,,,,,,,
183,Chebet ,Jackline,,,,,,,O728617988,,,,,,,,,,
184,Chepkole ,Willy,,,,,,,O720320248,,,,,,,,,,
185,Ganda ,Gregory,,,,,,,O726991098,,,,,,,,,,
186,Sisio ,Paul,,,,,,,O721442069,,,,,,,,,,
187,Gloria Wairimu,Sifa,,,,,,,O721831828,,,,,,,,,,
188,Ali ,Karakaya,,,,,,,O718338118,,,,,,,,,,
189,Nabuya ,Abigael,,,,,,,O725029056,,,,,,,,,,
190,Seroney ,Truphena,,,,,,,O710483747,,,,,,,,,,
191,Chesoli ,Emmanuel,,,,,,,O725834194,,,,,,,,,,
192,Atieno ,Farida,,,,,,,O720475416,,,,,,,,,,
193,Jeptoo ,Anita,,,,,,,O715546977,,,,,,,,,,
194,Kibet ,Victor,,,,,,,O723651796,,,,,,,,,,
195,melly ,Hillary,,,,,,,O710837028,,,,,,,,,,
196,Mueni ,Janet,,,,,,,O722388002,,,,,,,,,,
197,Kadenyi ,Sylvia,,,,,,,O720953530,,,,,,,,,,
198,Serem ,Emily,,,,,,,O727127605,,,,,,,,,,
199,Mutai ,Esther,,,,,,,O723329690,,,,,,,,,,
200,Paul Kimutai,Martin,,,,,,,O721983101,,,,,,,,,,
201,Tsinduye ,Griffins,,,,,,,O728115117,,,,,,,,,,
202,Lomariwo ,Florence,,,,,,,O721379061,,,,,,,,,,
203,Kiptum ,Jennifer,,,,,,,O720246056,,,,,,,,,,
204,Songol ,Magdalene,,,,,,,O724605691,,,,,,,,,,
205,Waweru Gitau,Samuel,,,,,,,O723646256,,,,,,,,,,
206,Nduta ,Abigael,,,,,,,O723646256,,,,,,,,,,
207,Nduta ,William,,,,,,,O721267667,,,,,,,,,,
208,Odindi ,Beryl,,,,,,,O723487254,,,,,,,,,,
209,Kibiego ,Josephine,,,,,,,O722644588,,,,,,,,,,
210,Waweru ,Patrick,,,,,,,O722237807,,,,,,,,,,
211,Kagwima ,Kamau,,,,,,,O706942074,,,,,,,,,,
212,Kadaga Lugalia,Rose,,,,,,,O724169144,,,,,,,,,,
213,Meiguran ,Shaolin,,,,,,,O722501345,,,,,,,,,,
214,Kigen ,Harry,,,,,,,O725232886,,,,,,,,,,
215,Cheptoek ,Nelly,,,,,,,O705676724,,,,,,,,,,
216,Abdi ,Sumaye,,,,,,,O710863119,,,,,,,,,,
217,Sigh ,Preet,,,,,,,O736000786,,,,,,,,,,
218,Chepkorir ,Sophia,,,,,,,O725430906,,,,,,,,,,
219,Rono ,Imani,,,,,,,O736172863,,,,,,,,,,
220,Kanyi ,Naomi,,,,,,,O721341047,,,,,,,,,,
221,Barchigei ,Kennedy,,,,,,,O737000100,,,,,,,,,,
222,James Karanja,Christian,,,,,,,O721831828,,,,,,,,,,
223,Nyandusi ,Marvel,,,,,,,O725444807,,,,,,,,,,
224,Nyandusi ,Grace,,,,,,,O724414010,,,,,,,,,,
225,Bett ,Dr.,,,,,,,O722309659,,,,,,,,,,
226,Awuor ,Joan,,,,,,,O770826723,,,,,,,,,,
227,Sunguta ,Judy,,,,,,,O727334525,,,,,,,,,,
228,Jackson ,Tuwei,,,,,,,O722492282,,,,,,,,,,
229,Ejikon ,Emmanuel,,,,,,,O713693391,,,,,,,,,,
230,Akwanalo ,Joyce,,,,,,,O738047943,,,,,,,,,,
231,Chemjor ,Brian,,,,,,,O722743500,,,,,,,,,,
232,Kimutai ,Dinah,,,,,,,O723617184,,,,,,,,,,
233,Sigalai ,Catherine,,,,,,,O720967077,,,,,,,,,,
234,Njogi ,Shaline,,,,,,,O715612713,,,,,,,,,,
235,Hassan ,Amira,,,,,,,O720254584,,,,,,,,,,
236,Chepchumba ,Leonida,,,,,,,O721135848,,,,,,,,,,
237,Diero ,Bertha,,,,,,,O722690485,,,,,,,,,,
238,Jonah ,Sakaja,,,,,,,O723687483,,,,,,,,,,
239,Cheruto ,Atarah,,,,,,,O723856292,,,,,,,,,,
240,Koech ,Emily,,,,,,,O721297317,,,,,,,,,,
241,Shirley ,Felisha,,,,,,,O738047943,,,,,,,,,,
242,Wangare ,Nancy,,,,,,,O720574047,,,,,,,,,,
243,Mackenzie ,Prudence,,,,,,,O727562581,,,,,,,,,,
244,Litali ,Collins,,,,,,,O722995626,,,,,,,,,,
245,Chelimo ,Bernice,,,,,,,O720875415,,,,,,,,,,
246,Sitienei ,Joan,,,,,,,O722557543,,,,,,,,,,
247,Kiprop ,Felix,,,,,,,O716120640,,,,,,,,,,
248,Sipala ,Elizabeth,,,,,,,O722731598,,,,,,,,,,
249,Makori ,Rebbeca,,,,,,,O718000854,,,,,,,,,,
250,Kipkemboi ,Ian,,,,,,,O722454603,,,,,,,,,,
251,Yego ,Magdalene,,,,,,,O718983540,,,,,,,,,,
252,Kimaiyo ,Lily,,,,,,,O720829275,,,,,,,,,,
253,Kipleting ,Yuri,,,,,,,O729607300,,,,,,,,,,
254,Shavia ,Dorcas,,,,,,,O715199367,,,,,,,,,,
255,Ndirangu(Dr.) ,Francis,,,,,,,O722883040,,,,,,,,,,
256,Nyaenga ,Sydney,,,,,,,O705105693,,,,,,,,,,
257,Tuwei ,Mary,,,,,,,O716589146,,,,,,,,,,
258,Meres ,Jemimah,,,,,,,O721362934,,,,,,,,,,
259,Muthoni ,Esther,,,,,,,O728407919,,,,,,,,,,
260,Oyiero ,Hellen,,,,,,,O726486212,,,,,,,,,,
261,Latham ,John,,,,,,,O732446170,,,,,,,,,,
262,Kibet Rotich,Brian,,,,,,,O721287970,,,,,,,,,,
263,Kamau ,Zipporah,,,,,,,O722912371,,,,,,,,,,
264,Jeptoo ,Norine,,,,,,,O722912371,,,,,,,,,,
265,Jacinta Anika,Mary,,,,,,,O717483475,,,,,,,,,,
266,Cherop Chebet,Peris,,,,,,,O724147080,,,,,,,,,,
267,Cheshari ,Benard,,,,,,,O724147080,,,,,,,,,,
268,Wanjiku ,Catherine,,,,,,,O727295473,,,,,,,,,,
269,Jepngetich ,Gladies,,,,,,,O721714742,,,,,,,,,,
270,Cherotich ,Nerius,,,,,,,O706893569,,,,,,,,,,
271,Abdillah ,Haweya,,,,,,,O703964391,,,,,,,,,,
272,Rajio ,Cliff,,,,,,,O733766476,,,,,,,,,,
273,Cherop ,Ruth,,,,,,,O723617184,,,,,,,,,,
274,Koech,Mercy,,,,,,,O707946376,,,,,,,,,,
275,Kiprono Korir,Arsene,,,,,,,O722557543,,,,,,,,,,
276,Wangare ,Harriet,,,,,,,O722790251,,,,,,,,,,
277,Nthenya ,Anne,,,,,,,O708118409,,,,,,,,,,
278,Malot ,Grace,,,,,,,O722988257,,,,,,,,,,
279,Lokoel ,Gilchrist,,,,,,,O712563334,,,,,,,,,,
280,Njenga ,Elizabeth,,,,,,,O721804369,,,,,,,,,,
281,Jeptoo ,Kelly,,,,,,,O722649110,,,,,,,,,,
282,Maritim(Prof) ,Alice,,,,,,,O711174632,,,,,,,,,,
283,Shiyuka ,Celine,,,,,,,O720583811,,,,,,,,,,
284,Kimutai ,Cecilia,,,,,,,O722598874,,,,,,,,,,
285,Cheruto Korir,Clara,,,,,,,O722598874,,,,,,,,,,
286,Noor ,Mohammed,,,,,,,O728695687,,,,,,,,,,
287,Chesoli ,Charles,,,,,,,O721359065,,,,,,,,,,
288,Nyongesa ,Sophia,,,,,,,O721158603,,,,,,,,,,
289,Nyangwa ,Eugene,,,,,,,O733775351,,,,,,,,,,
290,Kibiwott ,Israel,,,,,,,O711722467,,,,,,,,,,
291,Kiprono ,Barrack,,,,,,,O711722467,,,,,,,,,,
292,Kogo ,Esther,,,,,,,O721931477,,,,,,,,,,
293,Kigen ,Caleb,,,,,,,O723628838,,,,,,,,,,
294,Ramkat ,Rael,,,,,,,O721258975,,,,,,,,,,
295,Ochieng ,Jackton,,,,,,,O725335244,,,,,,,,,,
296,Kipruto Rono,Timothy,,,,,,,O704685199,,,,,,,,,,
297,Sirma ,Philomena,,,,,,,O717552123,,,,,,,,,,
298,Kibet ,Brian,,,,,,,O727367624,,,,,,,,,,
299,Mugun ,Christine,,,,,,,O723116289,,,,,,,,,,
300,Nafula ,Esther,,,,,,,O701628555,,,,,,,,,,
301,Kipkirui ,Maxwel,,,,,,,O728679330,,,,,,,,,,
302,Kipleting ,Sydney,,,,,,,O726697867,,,,,,,,,,
303,Jelagat ,Peace,,,,,,,O724331236,,,,,,,,,,
304,Sanyak ,Monica,,,,,,,O722313533,,,,,,,,,,
305,Sanya ,Joseph,,,,,,,O722313533,,,,,,,,,,
306,Kiprono ,Donald,,,,,,,O720422050,,,,,,,,,,
307,Wafula ,Gidion,,,,,,,O703549636,,,,,,,,,,
308,Jeptoo ,Grace,,,,,,,O721717710,,,,,,,,,,
309,Rono ,Zennah,,,,,,,O726834624,,,,,,,,,,
310,Lukorito ,Frankline,,,,,,,O728430895,,,,,,,,,,
311,Ogola ,Mosses,,,,,,,O712055659,,,,,,,,,,
312,Jelagat ,Elsie,,,,,,,O725908813,,,,,,,,,,
313,Kamau ,Roy,,,,,,,,,,,,,,,,,
314,Cherop ,Marion,,,,,,,O721295331,,,,,,,,,,
315,Sunguta ,Judy,,,,,,,O720107323,,,,,,,,,,
316,Kipkoech ,Kevin,,,,,,,O723093204,,,,,,,,,,
317,Kipruto Korir,Japheth,,,,,,,O728646004,,,,,,,,,,
318,Chelanga(Fr) ,Paul,,,,,,,O725341370,,,,,,,,,,
319,Agalla ,Sirniel,,,,,,,O723405288,,,,,,,,,,
320,Mageto ,Samuel,,,,,,,O720951018,,,,,,,,,,
321,Goli ,Shalom,,,,,,,O704322140,,,,,,,,,,
322,Kinuthia ,George,,,,,,,O725804801,,,,,,,,,,
323,Dahil ,Nasteho,,,,,,,O716649511,,,,,,,,,,
324,Mwarey ,Claire,,,,,,,O736172863,,,,,,,,,,
325,Rono ,Lui,,,,,,,O700015660,,,,,,,,,,
326,Jepkemoi Lagat,Jane,,,,,,,O722493975,,,,,,,,,,
327,Lagat ,Silas,,,,,,,O722211240,,,,,,,,,,
328,Lagat ,Vidlah,,,,,,,O724022759,,,,,,,,,,
329,Chebet ,Sarafina,,,,,,,O712824121,,,,,,,,,,
330,Killi ,Evans,,,,,,,O720953350,,,,,,,,,,
331,Tuluke ,Jeremy,,,,,,,O723022927,,,,,,,,,,
332,Cherotich ,Mercy,,,,,,,O714870230,,,,,,,,,,
333,Jepkoech ,Mary,,,,,,,O722652332,,,,,,,,,,
334,W Munyasia,Richard,,,,,,,O722625473,,,,,,,,,,
335,Chepkoech Mwarey,Concepta,,,,,,,O736172863,,,,,,,,,,
336,Cherono ,Mercy,,,,,,,,,,,,,,,,,
337,Beldina Osok,Nelly,,,,,,,O716607983,,,,,,,,,,
338,Chemtai ,Shantal,,,,,,,O722441527,,,,,,,,,,
339,Kibe ,Kipchumba,,,,,,,,,,,,,,,,,
340,Bunei ,Vivian,,,,,,,,,,,,,,,,,
341,Adams Kipngetich,Tarus,,,,,,,O716695406,,,,,,,,,,
342,Kirui Sang,Ian,,,,,,,,,,,,,,,,,
343,Kosgei ,Ezekiel,,,,,,,O721409066,,,,,,,,,,
344,Chelagat,Mercy,,,,,,,O725368436,,,,,,,,,,
345,Agoi ,Emmy,,,,,,,O712298473,,,,,,,,,,
346,Kirwa ,Dorcas,,,,,,,O722475387,,,,,,,,,,
347,Morogo Kobilo,Eleen,,,,,,,O702461009,,,,,,,,,,
348,Kirui ,Kennedy,,,,,,,O725829361,,,,,,,,,,
349,Mhawila ,Mhawila,,,,,,,O727567025,,,,,,,,,,
350,Kiplagat Korir,Emmanuel,,,,,,,O727719822,,,,,,,,,,
351,Wanjiru ,Medrine,,,,,,,O725868183,,,,,,,,,,
352,Kamau ,Michael,,,,,,,O719787413,,,,,,,,,,
353,Ongeti(Dr) ,Connie,,,,,,,O720793730,,,,,,,,,,
354,Kibet ,Emmanuel,,,,,,,O714064046,,,,,,,,,,
355,Abdi ,Habiba,,,,,,,O720777810,,,,,,,,,,
356,Wangai ,Sasha,,,,,,,O721866837,,,,,,,,,,
357,A Robai(Dr),Muchesi,,,,,,,O713238234,,,,,,,,,,
358,Miroro ,Abraham,,,,,,,O713243500,,,,,,,,,,
359,Amutete ,Hebbert,,,,,,,O722506451,,,,,,,,,,
360,Murunga ,Sheila,,,,,,,O714545640,,,,,,,,,,
361,Tarus ,Victoria,,,,,,,O711674853,,,,,,,,,,
362,Chemweno ,Samwel,,,,,,,O722999443,,,,,,,,,,
363,Chepchirchir ,Marion,,,,,,,O720035805,,,,,,,,,,
364,Joboskul Biwott,Grace,,,,,,,O728707319,,,,,,,,,,
365,Bungei ,Josephine,,,,,,,O727933408,,,,,,,,,,
366,Ronoh ,Kigen,,,,,,,O722453115,,,,,,,,,,
367,Kemboi ,Sharon,,,,,,,O724501548,,,,,,,,,,
368,Kiplagat ,John,,,,,,,O712315204,,,,,,,,,,
369,Kanyi ,Momanyi,,,,,,,O720272493,,,,,,,,,,
370,Korir ,Esther,,,,,,,O707525208,,,,,,,,,,
371,Chepchumba ,Deborah,,,,,,,O723903723,,,,,,,,,,
372,Koech ,Charles,,,,,,,O720253963,,,,,,,,,,
373,Arap Songony,William,,,,,,,O722669583,,,,,,,,,,
374,Akinyi Obare,Biyanka,,,,,,,O723731465,,,,,,,,,,
375,Magut ,Nicole,,,,,,,O721224726,,,,,,,,,,
376,Rotich ,Sharon,,,,,,,O729840157,,,,,,,,,,
377,Chepkorir ,Ruth,,,,,,,O725178133,,,,,,,,,,
378,Jerono ,Linet,,,,,,,O706644403,,,,,,,,,,
379,Rono ,Susan,,,,,,,O720971430,,,,,,,,,,
380,Wairegi ,Brian,,,,,,,O722583899,,,,,,,,,,
381,Cherotich ,Sarah,,,,,,,,,,,,,,,,,
382,Jepkorir ,Lilian,,,,,,,O718351791,,,,,,,,,,
383,Chebet ,Elizabeth,,,,,,,O722424512,,,,,,,,,,
384,Jose ,Aisha,,,,,,,,,,,,,,,,,
385,Kiprop ,Itzaak,,,,,,,O722981958,,,,,,,,,,
386,Nyawa Zuma,Mohammed,,,,,,,O719644238,,,,,,,,,,
387,Jerop Kemboi,Faith,,,,,,,O721718263,,,,,,,,,,
388,Kiptanui ,Kiplimo,,,,,,,O722684898,,,,,,,,,,
389,Chepchumba ,Kimberly,,,,,,,O724770757,,,,,,,,,,
390,O Araka,Glenn,,,,,,,O722612852,,,,,,,,,,
391,Wahu ,Virginia,,,,,,,O721229834,,,,,,,,,,
392,Wanyoike ,Bruno,,,,,,,O725593325,,,,,,,,,,
394,Wanjala ,Nancy,,,,,,,O726515630,,,,,,,,,,
395,Wanjiru ,Teresia,,,,,,,O723270258,,,,,,,,,,
396,Jepkemboi ,Tracy,,,,,,,O726710425,,,,,,,,,,
397,Chepkoech ,Emmy,,,,,,,O728926027,,,,,,,,,,
398,Malenya ,Joyce,,,,,,,O726532089,,,,,,,,,,
399,Chemutai ,Joy,,,,,,,O720473038,,,,,,,,,,
400,Sum ,Carolyne,,,,,,,O725533043,,,,,,,,,,
401,Kahono ,Charles,,,,,,,O721668790,,,,,,,,,,
402,Wokanya ,Jimmy,,,,,,,O707824751,,,,,,,,,,
403,Lambert ,Augustine,,,,,,,O713811920,,,,,,,,,,
404,Joyce (Dr),Omuok,,,,,,,O729271611,,,,,,,,,,
405,Cheptoo ,Keysha,,,,,,,O723091689,,,,,,,,,,
406,Michael Orina,Evans,,,,,,,O721902935,,,,,,,,,,
407,Mogaka Orina,Brian,,,,,,,O702174992,,,,,,,,,,
408,Kwena ,Anna,,,,,,,O725229802,,,,,,,,,,
409,Dabaso ,Batula,,,,,,,O703778504,,,,,,,,,,
410,Kerich ,Scholastica,,,,,,,O718618298,,,,,,,,,,
411,Baraza ,Catherine,,,,,,,O710317549,,,,,,,,,,
412,Rotich ,Nelly,,,,,,,,,,,,,,,,,
413,Nyaboke Nyandusi,Grace,,,,,,,,,,,,,,,,,
414,Merimung ,Akal,,,,,,,,,,,,,,,,,
415,Kiptoo,Magret,,,,,,,,,,,,,,,,,
416,Karia ,Solomon,,,,,,,,,,,,,,,,,
417,Kibet ,Jane,,,,,,,,,,,,,,,,,
418,Chebii ,Rita,,,,,,,,,,,,,,,,,
419,Birgen ,Regina,,,,,,,,,,,,,,,,,
420,Cheruyiot ,Jane,,,,,,,,,,,,,,,,,
421,Kipruto Koech,David,,,,,,,,,,,,,,,,,
422,Sang ,Benjamin,,,,,,,,,,,,,,,,,
423,Chepchirchir ,Jasmine,,,,,,,,,,,,,,,,,
424,Mbugua ,Miriam,,,,,,,,,,,,,,,,,
425,Wanjiru Kahono,Mary,,,,,,,,,,,,,,,,,
426,Jerotich ,Hilda,,,,,,,,,,,,,,,,,
427,Rotich ,Raphael,,,,,,,,,,,,,,,,,
428,Abdulahi ,Aisha,,,,,,,,,,,,,,,,,
429,Langat ,Adams,,,,,,,,,,,,,,,,,
430,Maritim ,Emmanuel,,,,,,,,,,,,,,,,,
431,Barngetung ,Susan,,,,,,,,,,,,,,,,,
432,Jerotich ,Winnie,,,,,,,,,,,,,,,,,
433,Pilonenko ,Lena,,,,,,,,,,,,,,,,,
434,Murey ,Vincent,,,,,,,,,,,,,,,,,
435,Jepchirchir ,Stephanie,,,,,,,,,,,,,,,,,
436,Kinuthia ,Ruphas,,,,,,,,,,,,,,,,,
437,Alunda ,Christine,,,,,,,,,,,,,,,,,
438,Imani ,Tanasha,,,,,,,,,,,,,,,,,
439,Busienei ,Roselyne,,,,,,,,,,,,,,,,,
440,Sheila Otieno,Faith,,,,,,,,,,,,,,,,,
441,Langat ,Judy,,,,,,,,,,,,,,,,,
442,Mwarey Kiptarus,Costantina,,,,,,,,,,,,,,,,,
443,Kiptum ,Nickson,,,,,,,,,,,,,,,,,
444,Kipruto ,Kelvin,,,,,,,,,,,,,,,,,
445,Muhonja ,Rufina,,,,,,,,,,,,,,,,,
446,Chepkemboi ,Ruth,,,,,,,,,,,,,,,,,
447,Precious Momanyi,Daisy,,,,,,,,,,,,,,,,,
448,Abebe ,Alech,,,,,,,,,,,,,,,,,
449,Kiprono ,Browson,,,,,,,,,,,,,,,,,
450,Chepkemei ,Eusilah,,,,,,,,,,,,,,,,,
451,Ochieng(Dr) ,Maureen,,,,,,,,,,,,,,,,,
452,Kigen ,Aston,,,,,,,,,,,,,,,,,
453,Abaya ,Clement,,,,,,,,,,,,,,,,,
454,Maiyo ,Domtila,,,,,,,,,,,,,,,,,
455,Chang Too,Adrian,,,,,,,,,,,,,,,,,
456,Tigoi ,Agneta,,,,,,,,,,,,,,,,,
457,Mutai ,Joseph,,,,,,,,,,,,,,,,,
458,Jerotich Kibet,Faith,,,,,,,,,,,,,,,,,
459,Kusimba ,Brenda,,,,,,,,,,,,,,,,,
460,Junior ,Rick,,,,,,,,,,,,,,,,,
461,Rono ,Peninah,,,,,,,,,,,,,,,,,
462,Mukhongo ,Anne,,,,,,,,,,,,,,,,,
463,Osok Awenyo,Philip,,,,,,,,,,,,,,,,,
464,Kaluna ,Joseph,,,,,,,,,,,,,,,,,
465,Ivayo ,Benedict,,,,,,,,,,,,,,,,,
466,Kipkoech ,Jonah,,,,,,,,,,,,,,,,,
467,Maritim ,Daniel,,,,,,,,,,,,,,,,,
468,Nyachoke ,Emmanuel,,,,,,,,,,,,,,,,,
469,Njunguna ,Festus,,,,,,,,,,,,,,,,,
470,Cherono ,Eliseba,,,,,,,,,,,,,,,,,
471,Kosgei ,Stephen,,,,,,,,,,,,,,,,,
472,Lukandu(DR) ,Ochiba,,,,,,,,,,,,,,,,,
473,Cherop ,Felishana,,,,,,,,,,,,,,,,,
474,Bor ,Flomena,,,,,,,,,,,,,,,,,
475,Rotich ,Arnold,,,,,,,,,,,,,,,,,
476,Kobilo ,Tecla,,,,,,,,,,,,,,,,,
477,Wanjiru Mwangi,Rebecca,,,,,,,,,,,,,,,,,
478,Bungei ,Carolyne,,,,,,,,,,,,,,,,,
479,Rop ,Rael,,,,,,,,,,,,,,,,,
480,Kosgei ,Trizzah,,,,,,,,,,,,,,,,,
481,Mwaura ,Francis,,,,,,,,,,,,,,,,,
482,Junior Kipkemboi,Chris,,,,,,,,,,,,,,,,,
483,Singoei ,Rebecca,,,,,,,,,,,,,,,,,
484,Magut ,Ninel,,,,,,,,,,,,,,,,,
485,Cherus ,Jennifer,,,,,,,,,,,,,,,,,
486,Kibet ,Amon,,,,,,,,,,,,,,,,,
487,Kiprotich ,Austin,,,,,,,,,,,,,,,,,
488,Kipkorir ,Ian,,,,,,,,,,,,,,,,,
489,C Sang,Elizabeth,,,,,,,,,,,,,,,,,
490,Omondi ,Eric,,,,,,,,,,,,,,,,,
491,Ebei ,Moses,,,,,,,,,,,,,,,,,
492,Gitonga ,Wayne,,,,,,,,,,,,,,,,,
493,Kipchumba ,Collins,,,,,,,,,,,,,,,,,
494,Kanyi ,Patrick,,,,,,,,,,,,,,,,,
495,Muthoni ,Tabitha,,,,,,,,,,,,,,,,,
496,Nyaboka Ochiba,Jameela,,,,,,,,,,,,,,,,,
497,Waithera ,Mary,,,,,,,,,,,,,,,,,
498,Kiprop ,Alex,,,,,,,,,,,,,,,,,
499,Mercy ,Kaiyoni,,,,,,,,,,,,,,,,,
501,Cheruiyot ,Ascar,,,,,,,,,,,,,,,,,
502,Meto ,IT,,,,,,,,,,,,,,,,,
503,Kipkalya ,Richard,,,,,,,,,,,,,,,,,
504,Koech ,Hellen,,,,,,,,,,,,,,,,,
505,Gitonga ,Harrison,,,,,,,,,,,,,,,,,
506,Oyiera ,Laura,,,,,,,,,,,,,,,,,
507,Korir ,Marcellus,,,,,,,,,,,,,,,,,
508,Musembi ,MaryAnne,,,,,,,,,,,,,,,,,
509,Mukami ,Jane,,,,,,,,,,,,,,,,,
510,Evans ,Kosgei,,,,,,,,,,,,,,,,,
511,Jackline Anyango,Phoebe,,,,,,,,,,,,,,,,,
512,Kiprotich ,Ryan,,,,,,,,,,,,,,,,,
513,Nodes ,Bridge,,,,,,,,,,,,,,,,,
514,Jebiwot ,Beatrice,,,,,,,,,,,,,,,,,
515,Achohi ,Daniel,,,,,,,,,,,,,,,,,
516,Obare Indakwa,Ainea,,,,,,,,,,,,,,,,,
517,Yegon ,Victor,,,,,,,,,,,,,,,,,
518,Raburu ,Everlyne,,,,,,,,,,,,,,,,,
519,Cherotich ,Carolyne,,,,,,,,,,,,,,,,,
520,Sumbeiywo ,Inanna,,,,,,,,,,,,,,,,,
521,Leitich ,Eugene,,,,,,,,,,,,,,,,,
522,Cherono ,Sheila,,,,,,,,,,,,,,,,,
523,Kipchumba Naibei,Kevin,,,,,,,,,,,,,,,,,
524,Wamithi Maina,Joshua,,,,,,,,,,,,,,,,,
525,Kiplagat ,Brian,,,,,,,,,,,,,,,,,
526,Chemweno ,Diana,,,,,,,,,,,,,,,,,
527,Nalekat ,Bevalyne,,,,,,,,,,,,,,,,,
528,Sidhu ,Davinder,,,,,,,,,,,,,,,,,
529,Masiza ,Raymond,,,,,,,,,,,,,,,,,
530,Singh ,Navdeep,,,,,,,,,,,,,,,,,
531,Kipkosgei Kwambai,Amos,,,,,,,,,,,,,,,,,
532,Jepchirchir ,Marion,,,,,,,,,,,,,,,,,
533,Chebet ,Lilian,,,,,,,,,,,,,,,,,
534,Cheboiwo ,Vivian,,,,,,,,,,,,,,,,,
535,K Victor,Olumbe,,,,,,,,,,,,,,,,,
536,Wanjiku ,Faith,,,,,,,,,,,,,,,,,
537,Kiprop ,Robert,,,,,,,,,,,,,,,,,
538,Kipchumba ,Victor,,,,,,,,,,,,,,,,,
539,Chebet ,Laura,,,,,,,,,,,,,,,,,
540,Wairimu ,Truphena,,,,,,,,,,,,,,,,,
541,Wanjiku ,Alysa,,,,,,,,,,,,,,,,,
542,Jepchirchir ,Joy,,,,,,,,,,,,,,,,,
543,Idi OL,Mwana,,,,,,,,,,,,,,,,,
544,K Chemoiwo,Philemon,,,,,,,,,,,,,,,,,
545,K Korir,Silas,,,,,,,,,,,,,,,,,
546,Kimathi ,Damaris,,,,,,,,,,,,,,,,,
547,Kiptoo Kibet,Nelvon,,,,,,,,,,,,,,,,,
548,Kosgei ,Robert,,,,,,,,,,,,,,,,,
549,Minayo Aluhoyio,Maryleen,,,,,,,,,,,,,,,,,
550,Kiplagat ,Michael,,,,,,,,,,,,,,,,,
551,Mumia,Benjamin,,,,,,,,,,,,,,,,,
552,Ruto ,Benardate,,,,,,,,,,,,,,,,,
553,Mapesa ,Christopher,,,,,,,,,,,,,,,,,
554,K Songok(Rev),Geofry,,,,,,,,,,,,,,,,,
555,Njoroge ,Cecilia,,,,,,,,,,,,,,,,,
556,William ,Locheriang,,,,,,,,,,,,,,,,,
557,Sipala ,Jacqueline,,,,,,,,,,,,,,,,,
558,Cherono ,Magret,,,,,,,,,,,,,,,,,
559,Trushamit ,Patel,,,,,,,,,,,,,,,,,
560,Abisai ,Caleb,,,,,,,,,,,,,,,,,
561,Kipyego ,Vincent,,,,,,,,,,,,,,,,,
562,Bittok ,Catherine,,,,,,,,,,,,,,,,,
563,Kiptoo LEL,Elvis,,,,,,,,,,,,,,,,,
564,Korir ,Abraham,,,,,,,,,,,,,,,,,
565,Makori ,Sarah,,,,,,,,,,,,,,,,,
566,Dabaso ,Narsa,,,,,,,,,,,,,,,,,
567,Marleni ,Francis,,,,,,,,,,,,,,,,,
568,Deng ,Ayueng,,,,,,,,,,,,,,,,,
569,Kipchirchir ,Roy,,,,,,,,,,,,,,,,,
570,Terigin ,Jackline,,,,,,,,,,,,,,,,,
571,Koech ,Francis,,,,,,,,,,,,,,,,,
572,Jepkorir ,Angela,,,,,,,,,,,,,,,,,
573,Kipsang ,Naomi,,,,,,,,,,,,,,,,,
574,Jepkemoi ,Dorcas,,,,,,,,,,,,,,,,,
575,Jepkorir ,Naomy,,,,,,,,,,,,,,,,,
576,Jerop ,Ruth,,,,,,,,,,,,,,,,,
577,Kiplagat ,Elvis,,,,,,,,,,,,,,,,,
578,Chitai ,Mary,,,,,,,,,,,,,,,,,
579,Rono ,Nancy,,,,,,,,,,,,,,,,,
580,Kiplagat ,Martin,,,,,,,,,,,,,,,,,
581,Muiruri ,Penina,,,,,,,,,,,,,,,,,
582,Rizak ,Abdi,,,,,,,,,,,,,,,,,
583,Noor ,Mohammed,,,,,,,,,,,,,,,,,
584,C Korir,Beatrice,,,,,,,,,,,,,,,,,
585,Oidi ,Arnold,,,,,,,,,,,,,,,,,
586,Wesonga ,Sylvanus,,,,,,,,,,,,,,,,,
587,Carolyne ,Sonia,,,,,,,,,,,,,,,,,
588,Jepkosgei ,Joan,,,,,,,,,,,,,,,,,
589,Yeko ,Sheila,,,,,,,,,,,,,,,,,
590,Chemjor ,Emily,,,,,,,,,,,,,,,,,
591,Dubow Jelle,Hothan,,,,,,,,,,,,,,,,,
592,Dubow Jelle,Hannan,,,,,,,,,,,,,,,,,
593,Chelel ,Viona,,,,,,,,,,,,,,,,,
594,Japheth Junior,Omusundi,,,,,,,,,,,,,,,,,
595,A Aluoch,Roselyne,,,,,,,,,,,,,,,,,
596,Saduna ,David,,,,,,,,,,,,,,,,,
597,Faith ,Ekasiba,,,,,,,,,,,,,,,,,
598,Rebeccah ,Chepchirchir,,,,,,,,,,,,,,,,,
599,Kipkemboi Kiprop,Nellan,,,,,,,,,,,,,,,,,
600,Abudho ,Alex,,,,,,,,,,,,,,,,,
601,Peter Kongoni,Sean,,,,,,,,,,,,,,,,,
602,Letting ,Kevin,,,,,,,,,,,,,,,,,
603,Chepkoech ,Judy,,,,,,,,,,,,,,,,,
604,K Mbugua,Geofry,,,,,,,,,,,,,,,,,
605,Kipkirui ,Daniel,,,,,,,,,,,,,,,,,
606,Korir ,Manoah,,,,,,,,,,,,,,,,,
607,K Biwott,Patrick,,,,,,,,,,,,,,,,,
608,Suri ,Raman,,,,,,,,,,,,,,,,,
609,Cherop ,Gloria,,,,,,,,,,,,,,,,,
610,Momanyi ,Garvon,,,,,,,,,,,,,,,,,
611,Kipchumba ,Benard,,,,,,,,,,,,,,,,,
612,Cheptoo ,Abigael,,,,,,,,,,,,,,,,,
613,Magare ,Thomas,,,,,,,,,,,,,,,,,
614,Lagat ,Cosmas,,,,,,,,,,,,,,,,,
615,Abdurahma Farah,Amina,,,,,,,,,,,,,,,,,
616,Keter ,Alfred,,,,,,,,,,,,,,,,,
617,Muthoni,Elizabeth,,,,,,,,,,,,,,,,,
618,Biar,John,,,,,,,,,,,,,,,,,
619,Mutai ,Michael,,,,,,,,,,,,,,,,,
620,Osman ,Hamza,,,,,,,,,,,,,,,,,
621,Wambui Karanja,Rachael,,,,,,,,,,,,,,,,,
622,Kiplimo ,Benedict,,,,,,,,,,,,,,,,,
623,Kosgei ,Tracy,,,,,,,,,,,,,,,,,
624,Sawatzky ,Carole,,,,,,,,,,,,,,,,,
625,Sipala ,Florence,,,,,,,,,,,,,,,,,
626,Paul Kipruto,John,,,,,,,,,,,,,,,,,
627,Chepchirchir ,Mercy,,,,,,,,,,,,,,,,,
628,Chepchirchir ,Dorothy,,,,,,,,,,,,,,,,,
629,Sawe ,Moses,,,,,,,,,,,,,,,,,
630,Kimani ,Eunice,,,,,,,,,,,,,,,,,
631,Chemutai ,Joan,,,,,,,,,,,,,,,,,
632,Karanja ,Trizzah,,,,,,,,,,,,,,,,,
633,Tanui ,Kipkemboi,,,,,,,,,,,,,,,,,
634,A Omolo,Beryl,,,,,,,,,,,,,,,,,
635,Chemining ,Pauline,,,,,,,,,,,,,,,,,
636,Chelagat Tuiyatt,Alexis,,,,,,,,,,,,,,,,,
637,Tanui ,Alvin,,,,,,,,,,,,,,,,,
638,Pierre ,Adrian,,,,,,,,,,,,,,,,,
639,Akubasu ,Nevan,,,,,,,,,,,,,,,,,
640,Tanui ,Pascaline,,,,,,,,,,,,,,,,,
641,Makori Ahoya,Edna,,,,,,,,,,,,,,,,,
642,Cheruyiot ,Caroline,,,,,,,,,,,,,,,,,
643,Korir ,Erick,,,,,,,,,,,,,,,,,
644,Kagwe ,John,,,,,,,,,,,,,,,,,
645,Mwarey ,Martin,,,,,,,,,,,,,,,,,
646,Jelle Dahir,Abdi,,,,,,,,,,,,,,,,,
647,Kangale ,Fauziah,,,,,,,,,,,,,,,,,
648,Shahib ,Munira,,,,,,,,,,,,,,,,,
649,F Achieng,Angela,,,,,,,,,,,,,,,,,
650,Kogo ,Safarine,,,,,,,,,,,,,,,,,
651,Kimaru Njoroge,Job,,,,,,,,,,,,,,,,,
652,Makena M,Tirzah,,,,,,,,,,,,,,,,,
653,Chebet ,Precious,,,,,,,,,,,,,,,,,
654,Chebet ,June,,,,,,,,,,,,,,,,,
655,Chebet ,Cynthia,,,,,,,,,,,,,,,,,
656,Sang ,Julia,,,,,,,,,,,,,,,,,
657,Tangui ,Sammy,,,,,,,,,,,,,,,,,
658,Kiprop ,Shawn,,,,,,,,,,,,,,,,,
659,Makilap ,Joseph,,,,,,,,,,,,,,,,,
660,Manyim ,Joan,,,,,,,,,,,,,,,,,
661,Nyongesa ,Patrick,,,,,,,,,,,,,,,,,
662,Kipsang ,Erick,,,,,,,,,,,,,,,,,
663,Chepchirchir ,Lexy,,,,,,,,,,,,,,,,,
664,Atwaka ,Humphrey,,,,,,,,,,,,,,,,,
665,Cheptoo ,Sandra,,,,,,,,,,,,,,,,,
666,Atieno ,Pamela,,,,,,,,,,,,,,,,,
667,Tirop ,Emily,,,,,,,,,,,,,,,,,
668,Wanjiku Ndwiga,Alice,,,,,,,,,,,,,,,,,
669,J Vadgama,Hasmita,,,,,,,,,,,,,,,,,
670,Kirorei ,Rose,,,,,,,,,,,,,,,,,
671,Negesa Odondi,Ruth,,,,,,,,,,,,,,,,,
672,Osiemo ,Kwame,,,,,,,,,,,,,,,,,
673,Osiemo ,Dennis,,,,,,,,,,,,,,,,,
674,Koech ,Emmanuel,,,,,,,,,,,,,,,,,
675,Kiogora ,Meshack,,,,,,,,,,,,,,,,,
676,Immaculate ,Eileen,,,,,,,,,,,,,,,,,
677,Kemunto ,Josphine,,,,,,,,,,,,,,,,,
678,Florence Murgor,Dr.,,,,,,,,,,,,,,,,,
679,Aketch ,Jacinta,,,,,,,,,,,,,,,,,
680,Kerubo ,Hellen,,,,,,,,,,,,,,,,,
681,Wanjiku ,Jacinta,,,,,,,,,,,,,,,,,
682,Rasugu Onjiko,Oscar,,,,,,,,,,,,,,,,,
683,Mwachofi ,MaryAnne,,,,,,,,,,,,,,,,,
684,Njeri ,Lydiah,,,,,,,,,,,,,,,,,
685,Kimutai ,Ryan,,,,,,,,,,,,,,,,,
686,Murei ,Mary,,,,,,,,,,,,,,,,,
687,Hassan ,Shire,,,,,,,,,,,,,,,,,
688,Timothy Kiplagat,Fr.,,,,,,,,,,,,,,,,,
689,Dindi ,Hellen,,,,,,,,,,,,,,,,,
690,Ndwiga ,Jane,,,,,,,,,,,,,,,,,
691,Jeruto ,Maria,,,,,,,,,,,,,,,,,
692,Gatundu ,James,,,,,,,,,,,,,,,,,
693,Njeri ,Mercy,,,,,,,,,,,,,,,,,
694,Luseria ,Rhiter,,,,,,,,,,,,,,,,,
695,Kipkorir ,Adrian,,,,,,,,,,,,,,,,,
696,Ruto ,Mike,,,,,,,,,,,,,,,,,
697,Jepkemboi ,Ashley,,,,,,,,,,,,,,,,,
698,C Koech,Carolyne,,,,,,,,,,,,,,,,,
699,Chebichii ,Kimberly,,,,,,,,,,,,,,,,,
700,Cheboiwo ,Jane,,,,,,,O722242294,,,,,,,,,,
701,Nyawera ,Tracy,,,,,,,O735000933,,,,,,,,,,
702,Kiheru ,Caleb,,,,,,,O735000933,,,,,,,,,,
703,Maingi ,Kelvin,,,,,,,O727814674,,,,,,,,,,
704,Njoroge Macharia,Anthony,,,,,,,O722235815,,,,,,,,,,
705,Michalle ,Alicia,,,,,,,,,,,,,,,,,
706,Chelagat,Calvin,,,,,,,O703205217,,,,,,,,,,
707,Kataka Wasilwa,Wilberforce,,,,,,,O717182970,,,,,,,,,,
708,Shah ,Adarsh,,,,,,,O701968877,,,,,,,,,,
709,N Tsuma,Patricia,,,,,,,O724879048,,,,,,,,,,
710,Hussein ,Ibtisam,,,,,,,O725025087,,,,,,,,,,
711,Alusa ,Patrick,,,,,,,O721512892,,,,,,,,,,
712,Ahmed ,Fatuma,,,,,,,O708849208,,,,,,,,,,
713,Ombiro ,Jackline,,,,,,,O713840803,,,,,,,,,,
714,Mutai ,Sharon,,,,,,,O723880088,,,,,,,,,,
715,Kirwa ,Jeff,,,,,,,O724830263,,,,,,,,,,
716,Bor ,Nicolette,,,,,,,O721896721,,,,,,,,,,
717,Mutethia ,Romano,,,,,,,O720558131,,,,,,,,,,
718,Omar Shariff,Hudheifa,,,,,,,O721413359,,,,,,,,,,
719,Jeptoo ,Esther,,,,,,,O725216275,,,,,,,,,,
720,Yaura ,Petronilah,,,,,,,O724594440,,,,,,,,,,
721,Sydney ,Sawe,,,,,,,O724891892,,,,,,,,,,
722,Cheruto Chelanga,Rahila,,,,,,,O702845417,,,,,,,,,,
723,Masese Asuga,Delilah,,,,,,,O722328209,,,,,,,,,,
724,Kipkemboi ,Ronnie,,,,,,,O710859388,,,,,,,,,,
725,Chemutai ,Shirleen,,,,,,,O718307172,,,,,,,,,,
726,Agade ,Martin,,,,,,,O714823400,,,,,,,,,,
727,Samson ,Seko,,,,,,,O720018503,,,,,,,,,,
728,Hassan Dirie,Ahmed,,,,,,,O717586991,,,,,,,,,,
729,Ambale ,Kennedy,,,,,,,,,,,,,,,,,
730,Kolebech ,Daisy,,,,,,,O705136646,,,,,,,,,,
731,Kapule Etyang,Frankline,,,,,,,O703130002,,,,,,,,,,
732,Ahmed ,Abdiwadud,,,,,,,O710870761,,,,,,,,,,
733,O. Mecha,Lornah,,,,,,,O722331475,,,,,,,,,,
734,Kiptoo ,Mallon,,,,,,,O721603601,,,,,,,,,,
735,Chepngetich ,Brenda,,,,,,,O736174162,,,,,,,,,,
736,Adan ,Abdifatan,,,,,,,O721865542,,,,,,,,,,
737,Omune ,Phoebe,,,,,,,O710959703,,,,,,,,,,
738,Juma ,Everlyne,,,,,,,O72819475,,,,,,,,,,
739,Mutai ,Isaiah,,,,,,,O720397397,,,,,,,,,,
740,Kipruto ,Brian,,,,,,,O722927212,,,,,,,,,,
741,L ,Agnes,,,,,,,O722262851,,,,,,,,,,
742,Mongo ,Joelosteen,,,,,,,O715094795,,,,,,,,,,
743,Cheruiyot ,Alice,,,,,,,O727030692,,,,,,,,,,
744,Birgen ,Rhoda,,,,,,,O715241043,,,,,,,,,,
745,Kaittany ,Andrew,,,,,,,O725946429,,,,,,,,,,
746,Asuga ,Obed,,,,,,,O712127066,,,,,,,,,,
747,Musa ,Zubeda,,,,,,,O712910633,,,,,,,,,,
748,Tuwei ,Henry,,,,,,,O70833405,,,,,,,,,,
749,Kalsi ,Narinderjeet,,,,,,,O722890312,,,,,,,,,,
750,Stawa Odwori,Sylvia,,,,,,,O727100098,,,,,,,,,,
751,Cheptoo ,Sharon,,,,,,,O715718787,,,,,,,,,,
752,Kalsi ,Kamal,,,,,,,O733790078,,,,,,,,,,
753,Buigut ,Joseph,,,,,,,O724128794,,,,,,,,,,
754,Mcodhano7 ,George,,,,,,,O724580299,,,,,,,,,,
755,Ngetich ,Jeremiah,,,,,,,O724936498,,,,,,,,,,
756,Faith Nyakundi,Lynn,,,,,,,O723100285,,,,,,,,,,
757,Kiplel ,David,,,,,,,O718612365,,,,,,,,,,
758,Jepchirchir ,Jennifer,,,,,,,O798853001,,,,,,,,,,
759,Kiprop ,Titus,,,,,,,O727800534,,,,,,,,,,
760,Ali ,Mohammed,,,,,,,O726129866,,,,,,,,,,
761,Cherotich ,Lir-Chichi,,,,,,,O720204187,,,,,,,,,,
762,Emmy ,Kipsoi,,,,,,,O722865191,,,,,,,,,,
763,Omolloh ,George,,,,,,,O725119438,,,,,,,,,,
764,Mutai ,Tabitha,,,,,,,,,,,,,,,,,
765,W.Githua ,Cecilia,,,,,,,O722836324,,,,,,,,,,
766,Sitawa ,Angel,,,,,,,O725088301,,,,,,,,,,
767,Kemei ,Dorcas,,,,,,,O713329101,,,,,,,,,,
768,Boen ,Renley,,,,,,,O723647419,,,,,,,,,,
769,Jebet ,Jenny,,,,,,,O704898883,,,,,,,,,,
770,Nissi Cherop,Sienna,,,,,,,O722799685,,,,,,,,,,
771,Soy ,Linner,,,,,,,,,,,,,,,,,
772,Chepchumba ,Joy,,,,,,,O705061009,,,,,,,,,,
773,Kipleting ,Isaac,,,,,,,O725603415,,,,,,,,,,
774,Wanjiru ,Grace,,,,,,,O711823925,,,,,,,,,,
775,Collins Nyandusi,George,,,,,,,O791646082,,,,,,,,,,
776,Ronoh ,Ruth,,,,,,,O724712885,,,,,,,,,,
777,J Korir,Mercy,,,,,,,O729041518,,,,,,,,,,
778,Onchagwa ,Shydlone,,,,,,,O7022219005,,,,,,,,,,
779,Kiplimo Kipruto,Andy,,,,,,,O724895845,,,,,,,,,,
780,Orayo Kimanga,Bradley,,,,,,,O721903399,,,,,,,,,,
781,Jepkoech ,Carolyne,,,,,,,O721717710,,,,,,,,,,
782,Jepchumba ,Delcine,,,,,,,O727775511,,,,,,,,,,
783,Koech ,Alvin,,,,,,,O727788007,,,,,,,,,,
784,Lude ,Vincent,,,,,,,O724994808,,,,,,,,,,
785,Cheruto ,Natalie,,,,,,,O721304444,,,,,,,,,,
786,Kiprono ,Jude,,,,,,,O725904618,,,,,,,,,,
787,Jamal ,Mohammed,,,,,,,O732208409,,,,,,,,,,
788,Chemutai ,Janet,,,,,,,O727991303,,,,,,,,,,
789,Faith Nafula,Grace,,,,,,,O727490993,,,,,,,,,,
790,C Busienei,Sarah,,,,,,,O727479036,,,,,,,,,,
791, ,Vadgama,,,,,,,o733637555,,,,,,,,,,
792,Yego ,Judith,,,,,,,o720480485,,,,,,,,,,
793,Chesoimo Murei,Roselyne,,,,,,,o727175505,,,,,,,,,,
794,Mungai ,Peter,,,,,,,O722540697,,,,,,,,,,
795,Kipkemboi ,Jayden,,,,,,,O720530895,,,,,,,,,,
796,Kipkeu ,Gladys,,,,,,,O702351417,,,,,,,,,,
797,Mitei ,E.K.,,,,,,,O725449101,,,,,,,,,,
798,Jepchumba Kibet,Joy,,,,,,,O702461009,,,,,,,,,,
799,Wangui ,Lucia,,,,,,,O722107968,,,,,,,,,,
800,Kiprono ,Daniel,,,,,,,O721115880,,,,,,,,,,
801,Jepchumba ,Betsy,,,,,,,O725744256,,,,,,,,,,
802,Buigutt ,Magdalene,,,,,,,O722385206,,,,,,,,,,
803,Koome Kimathi,Alvin,,,,,,,O722493324,,,,,,,,,,
804,Njoki ,Purity,,,,,,,O728756403,,,,,,,,,,
805,Chepkemoi ,Lorna,,,,,,,O713779945,,,,,,,,,,
806,Birgen ,Rose,,,,,,,O795412790,,,,,,,,,,
807,Barmao ,Victor,,,,,,,O711724052,,,,,,,,,,
809,Ngerechi ,Judy,,,,,,,O703702175,,,,,,,,,,
810,Mong'eri ,Evans,,,,,,,O721754539,,,,,,,,,,
811,Kimeli Kemboi,Emmanuel,,,,,,,O724501548,,,,,,,,,,
812,Kiplagat ,Leonard,,,,,,,O712751813,,,,,,,,,,
813,Jepchirchir Cherutich,Nancy,,,,,,,O724895845,,,,,,,,,,
814,Shah ,Veer,,,,,,,O770032990,,,,,,,,,,
815,Wambui ,Emily,,,,,,,O712834779,,,,,,,,,,
816,Atieno ,Mellany,,,,,,,O723154839,,,,,,,,,,
817,Okumu ,Brenda,,,,,,,,,,,,,,,,,
818,Chelagat ,Lesly,,,,,,,O725445505,,,,,,,,,,
819,Kiprop ,Adrian,,,,,,,O721723641,,,,,,,,,,
820,Makokha ,Marita,,,,,,,O726389153,,,,,,,,,,
821,Nyambura Gitau,Milka,,,,,,,O729272988,,,,,,,,,,
822,Kiprono ,Ethan,,,,,,,O716694729,,,,,,,,,,
823,Cherop ,Mitchelle,,,,,,,O716694729,,,,,,,,,,
824,Wakesho Tendwa,Catherine,,,,,,,O721305252,,,,,,,,,,
825,Deng ,Chuol,,,,,,,O713314090,,,,,,,,,,
826,K keen,David,,,,,,,O704817765,,,,,,,,,,
827,Chepchumba ,Caroline,,,,,,,O725110774,,,,,,,,,,
828,Patel ,Alpesh,,,,,,,O720554747,,,,,,,,,,
829,Kibet Musobo,Aaron,,,,,,,O722972568,,,,,,,,,,
830,Sophy ,Fabricze,,,,,,,O721732190,,,,,,,,,,
831,chelagat ,faith,,,,,,,O702924722,,,,,,,,,,
832,Cherop Tallam,Hellen,,,,,,,O700228888,,,,,,,,,,
833,Chepchumba ,Damaris,,,,,,,O722924558,,,,,,,,,,
834,Ali ,Fatuma,,,,,,,O724307912,,,,,,,,,,
835,W. Nguku,Catherine,,,,,,,O733608515,,,,,,,,,,
836,Stanislas ,Kabalira,,,,,,,O708409246,,,,,,,,,,
837,Wafula Maina,Josephine,,,,,,,O724064534,,,,,,,,,,
838,Saina ,Anjelina,,,,,,,O723399336,,,,,,,,,,
839,Nyanyuki ,Dickson,,,,,,,O724770500,,,,,,,,,,
840,John Obong'o,Christopher,,,,,,,O702340670,,,,,,,,,,
841,Bomett ,Francesca,,,,,,,O723503498,,,,,,,,,,
842,Wabomba ,Mitresse,,,,,,,O711242729,,,,,,,,,,
843,Rono ,Julius,,,,,,,O720035805,,,,,,,,,,
844,Kurgat ,Lucy,,,,,,,O720555905,,,,,,,,,,
845,Kiprono ,Joyce,,,,,,,O721746331,,,,,,,,,,
846,Kiplagat Kwambai,Glenn,,,,,,,,,,,,,,,,,
847,Wanyonyi ,Julie,,,,,,,,,,,,,,,,,
848,Moses ,Kiprop,,,,,,,,,,,,,,,,,
849,Kimtai Ting,Barrack,,,,,,,,,,,,,,,,,
850,Keter ,Philip,,,,,,,,,,,,,,,,,
851,Githenya ,Peter,,,,,,,,,,,,,,,,,
852,Madiba ,Bruce,,,,,,,,,,,,,,,,,
853,Kosgei ,Kevin,,,,,,,,,,,,,,,,,
854,Lel ,Julie,,,,,,,,,,,,,,,,,
855,Jepchirchir Mutai,Patricia,,,,,,,,,,,,,,,,,
856,Warimu Mbogo,Jackline,,,,,,,,,,,,,,,,,
857,shioso ,Daniel,,,,,,,,,,,,,,,,,
858,Muhonja ,Emmaculate,,,,,,,,,,,,,,,,,
859,Kiprotich ,Donald,,,,,,,,,,,,,,,,,
860,Kimani ,Shayne,,,,,,,,,,,,,,,,,
861,Kangu ,Gladys,,,,,,,,,,,,,,,,,
862,Karanja Kimani,James,,,,,,,,,,,,,,,,,
863,Akoyo ,Rose,,,,,,,,,,,,,,,,,
864,Wanjiku ,Peris,,,,,,,,,,,,,,,,,
865,Jerop Chumba,Ashley,,,,,,,,,,,,,,,,,
866,Bwana ,Melactone,,,,,,,,,,,,,,,,,
867,Thuku ,Jane,,,,,,,,,,,,,,,,,
868,ombima ,Linda,,,,,,,,,,,,,,,,,
869,Rehal ,Jatinderpal,,,,,,,,,,,,,,,,,
870,Karura ,Joy,,,,,,,,,,,,,,,,,
871,Kipchirchir ,Damian,,,,,,,,,,,,,,,,,
872,K. R,Dennis,,,,,,,,,,,,,,,,,
873,Kerai ,Jayantilal,,,,,,,,,,,,,,,,,
874,Alma Ambasa,Dr.,,,,,,,,,,,,,,,,,
875,Tank ,Atul,,,,,,,,,,,,,,,,,
876,Mutheu ,Judy,,,,,,,,,,,,,,,,,
877,Eric Shivelenje,Dr.,,,,,,,,,,,,,,,,,
878,Kipchumba ,Branson,,,,,,,,,,,,,,,,,
879,Kipchumba Kimitto,Vincent,,,,,,,,,,,,,,,,,
880,Matu Marakaru,Simon,,,,,,,,,,,,,,,,,
881,Bor ,Sharon,,,,,,,,,,,,,,,,,
882,Chepngtich ,Emily,,,,,,,,,,,,,,,,,
883,Cherono ,Rose,,,,,,,,,,,,,,,,,
884,Kariuki ,Mwaniki,,,,,,,,,,,,,,,,,
885,Kipyego ,Tirus,,,,,,,,,,,,,,,,,
886,Songok ,Esther,,,,,,,,,,,,,,,,,
887,Samson ,Kiprono,,,,,,,,,,,,,,,,,
888,Kigen ,Nicholas,,,,,,,,,,,,,,,,,
889,Tolgos ,Susan,,,,,,,,,,,,,,,,,
890,Rop ,Diana,,,,,,,,,,,,,,,,,
891,Gathoni ,Gladys,,,,,,,,,,,,,,,,,
892,Murgor ,Ambrose,,,,,,,,,,,,,,,,,
893,Chepkemoi ,Janeffer,,,,,,,,,,,,,,,,,
894,Nanji ,Manjula,,,,,,,,,,,,,,,,,
895,Too ,Meshack,,,,,,,,,,,,,,,,,
896,Kang'ethe ,Simon,,,,,,,,,,,,,,,,,
897,Ambasa ,Sophia,,,,,,,,,,,,,,,,,
898,Kisuya ,Angeline,,,,,,,,,,,,,,,,,
900,Chebet ,Alma,,,,,,,,,,,,,,,,,
901,Chelimo Saina,Matilda,,,,,,,,,,,,,,,,,
902,Kisuya ,Joshua,,,,,,,,,,,,,,,,,
903,Kisuya ,Esther,,,,,,,,,,,,,,,,,
904,Akoth Omondi,Lydia,,,,,,,,,,,,,,,,,
905,Wekesa Namasaka,Antony,,,,,,,,,,,,,,,,,
906,Kemboi ,Jane,,,,,,,,,,,,,,,,,
907,jerotich ,Rhodah,,,,,,,,,,,,,,,,,
908,Kiplimo ,Lee,,,,,,,,,,,,,,,,,
909,Jelimo Lagat,Kelsy,,,,,,,,,,,,,,,,,
910,Jepchumba Lagat,Karen,,,,,,,,,,,,,,,,,
911,Kiprop Lagat,Kevin,,,,,,,,,,,,,,,,,
912,Mutai ,Nerissa,,,,,,,,,,,,,,,,,
913,Kipturgo ,Daisy,,,,,,,,,,,,,,,,,
914,Rapando ,Bradley,,,,,,,,,,,,,,,,,
915,Kipkirui ,Tonui,,,,,,,,,,,,,,,,,
916,Kirui ,Weldon,,,,,,,,,,,,,,,,,
917,Jerop ,Fralex,,,,,,,,,,,,,,,,,
918,Ruth Nandwa,Joy,,,,,,,,,,,,,,,,,
919,Ojango ,Isaac,,,,,,,,,,,,,,,,,
920,Precious chelagat,Leona,,,,,,,,,,,,,,,,,
921,Rono ,Brenda,,,,,,,,,,,,,,,,,
922,Kimitei ,Rose,,,,,,,,,,,,,,,,,
923,Leley ,Josephat,,,,,,,,,,,,,,,,,
924,Peter ,Pharrel,,,,,,,,,,,,,,,,,
925,Faith Chepngetich,Korir,,,,,,,,,,,,,,,,,
926,Jepkemoi ,Sandra,,,,,,,,,,,,,,,,,
927,Chepchumba ,Laureen,,,,,,,,,,,,,,,,,
928,Chepchumba ,Flavian,,,,,,,,,,,,,,,,,
929,Williams ,Josephine,,,,,,,,,,,,,,,,,
930,Chemutai ,June,,,,,,,,,,,,,,,,,
931,Copuck ,Joseph,,,,,,,,,,,,,,,,,
932,Maswan ,Loice,,,,,,,,,,,,,,,,,
933,Mutai ,George,,,,,,,,,,,,,,,,,
934,Jesang ,Drusilla,,,,,,,,,,,,,,,,,
935,Samikwa ,Sofia,,,,,,,,,,,,,,,,,
936,Chelimo ,Beatrice,,,,,,,,,,,,,,,,,
937,Kogo ,Susan,,,,,,,,,,,,,,,,,
938,Sein ,Immaculate,,,,,,,,,,,,,,,,,
939,Kandie ,Alphonse,,,,,,,,,,,,,,,,,
940,Too ,Joshua,,,,,,,,,,,,,,,,,
941,Rono ,Hillan,,,,,,,,,,,,,,,,,
942,Millicent ,Adhiambo,,,,,,,,,,,,,,,,,
943,Kimutai ,Harry,,,,,,,,,,,,,,,,,
944,Kipkorir ,Linus,,,,,,,,,,,,,,,,,
945,Susan Bett,Anne,,,,,,,,,,,,,,,,,
946,Kurgat ,Nancy,,,,,,,,,,,,,,,,,
947,Matelong ,Allan,,,,,,,,,,,,,,,,,
948,Kipkirui Songok,Marvin,,,,,,,,,,,,,,,,,
949,Talam ,Edwin,,,,,,,,,,,,,,,,,
950,Toroitich ,Samuel,,,,,,,,,,,,,,,,,
951,Jebet ,Tamara,,,,,,,,,,,,,,,,,
952,Mutuma ,Josphat,,,,,,,,,,,,,,,,,
953,Tirop ,Philip,,,,,,,,,,,,,,,,,
954,Nyaoge ,Gaspary,,,,,,,,,,,,,,,,,
955,Rono ,Ruth,,,,,,,,,,,,,,,,,
956,Jeptoo ,Joy,,,,,,,,,,,,,,,,,
957,jepkorir ,Sapentia,,,,,,,,,,,,,,,,,
958,Maina ,John,,,,,,,,,,,,,,,,,
959,Lel Jepkemboi,Shirley,,,,,,,,,,,,,,,,,
960,Muthoni ,Lucy,,,,,,,,,,,,,,,,,
962,Kigen ,Victor,,,,,,,,,,,,,,,,,
963,Jelagat ,Vallary,,,,,,,,,,,,,,,,,
964,Muthoni ,Anne,,,,,,,,,,,,,,,,,
965,Rop ,Rose,,,,,,,,,,,,,,,,,
966,Cheruiyot ,Bethwel,,,,,,,,,,,,,,,,,
968,Kibet ,Sharon,,,,,,,,,,,,,,,,,
969,Barbuch ,Eunice,,,,,,,,,,,,,,,,,
970,Chesire ,Emily,,,,,,,,,,,,,,,,,
971,Koech ,David,,,,,,,,,,,,,,,,,
972,Boi ,Rael,,,,,,,,,,,,,,,,,
973,Rotich ,Monicah,,,,,,,,,,,,,,,,,
974,Chumo ,Annah,,,,,,,,,,,,,,,,,
975,Kimaina ,Sharon,,,,,,,,,,,,,,,,,
976,Chelanga ,George,,,,,,,,,,,,,,,,,
977,Jepkoech ,Lexy,,,,,,,,,,,,,,,,,
978,Ogoch ,Bonface,,,,,,,,,,,,,,,,,
979,Tanui ,Noel,,,,,,,,,,,,,,,,,
980,Saina ,Janet,,,,,,,,,,,,,,,,,
981,Kiptoo ,Job,,,,,,,,,,,,,,,,,
982,Chepkorir ,Janeth,,,,,,,,,,,,,,,,,
983,Kipkebut ,Carolyn,,,,,,,,,,,,,,,,,
984,Tuitoek ,Caroline,,,,,,,,,,,,,,,,,
985,Chebii ,Philemon,,,,,,,,,,,,,,,,,
986,Ngotsi ,Ashley,,,,,,,,,,,,,,,,,
987,Omol ,RoseBella,,,,,,,,,,,,,,,,,
988,Mulei ,Jackson,,,,,,,,,,,,,,,,,
989,Chalicha ,Larissa,,,,,,,,,,,,,,,,,
990,Kipchumba ,Ryan,,,,,,,,,,,,,,,,,
991,Njeru ,Jane,,,,,,,,,,,,,,,,,
992,Kiprop ,Peter,,,,,,,,,,,,,,,,,
993,Jeruto ,Esther,,,,,,,,,,,,,,,,,
994,Yatich ,Peter,,,,,,,,,,,,,,,,,
995,Kamar ,Caroline,,,,,,,,,,,,,,,,,
997,Jelagat ,Vivian,,,,,,,,,,,,,,,,,
998,Kipyego ,Solomon,,,,,,,,,,,,,,,,,
999,Abdullahi ,Fahad,,,,,,,,,,,,,,,,,
1000,Jelagat Kirwa,Joy,,,,,,,O723706581,,,,,,,,,,
1001,Cheruiyot ,Esther,,,,,,,O727177232,,,,,,,,,,
1002,Njora ,Mary,,,,,,,O722365719,,,,,,,,,,
1003,Nyakoa ,Clea,,,,,,,,,,,,,,,,,
1004,Monchari ,Lydia,,,,,,,,,,,,,,,,,
1005,Cheruto Komen,Karen,,,,,,,,,,,,,,,,,
1006,Koiser ,Pamela,,,,,,,,,,,,,,,,,
1007,Musa Otuchi,Felix,,,,,,,,,,,,,,,,,
1008,Abdi ,Mohammed,,,,,,,O722962030,,,,,,,,,,
1009,Kipkosgei ,Kelly,,,,,,,,,,,,,,,,,
1010,Chepkwony ,John,,,,,,,,,,,,,,,,,
1011,Juma ,Jackton,,,,,,,,,,,,,,,,,
1012,Jepkurui ,Patience,,,,,,,,,,,,,,,,,
1013,Rose Wekalao,Precious,,,,,,,,,,,,,,,,,
1014,Abdi Nuur,Yusuf,,,,,,,,,,,,,,,,,
1015,Kiptim ,Brian,,,,,,,,,,,,,,,,,
1016,Lilian ,Simiyu,,,,,,,,,,,,,,,,,
1017,Opakas ,Jesse,,,,,,,,,,,,,,,,,
1018,Chelulei ,Zipporah,,,,,,,,,,,,,,,,,
1019,Ngetich ,Violah,,,,,,,,,,,,,,,,,
1020,Nalyanya ,Alice,,,,,,,,,,,,,,,,,
1021,Sabila ,Jane,,,,,,,,,,,,,,,,,
1022,Mutai ,Sarah,,,,,,,,,,,,,,,,,
1023,Simiyu Nyongesa,Larry,,,,,,,,,,,,,,,,,
1024,Omulimi ,Nixon,,,,,,,,,,,,,,,,,
1025,Jerono ,Diana,,,,,,,,,,,,,,,,,
1026,Jeruto Chemon,Daisy,,,,,,,,,,,,,,,,,
1027,Mugodo ,Olive,,,,,,,,,,,,,,,,,
1028,Njoroge ,George,,,,,,,,,,,,,,,,,
1029,Kerubo ,Edna,,,,,,,,,,,,,,,,,
1030,Kimurgor ,Myles,,,,,,,,,,,,,,,,,
1031,Wairimu Mwaura,Magdalene,,,,,,,,,,,,,,,,,
1032,Bett ,Maureen,,,,,,,,,,,,,,,,,
1033,Agade ,Ivy,,,,,,,,,,,,,,,,,
1034,Jemutai ,Sheryl,,,,,,,,,,,,,,,,,
1035,Chesire ,Beatrice,,,,,,,,,,,,,,,,,
1036,Kiprono ,Esther,,,,,,,,,,,,,,,,,
1037,Chemutai ,Liz,,,,,,,,,,,,,,,,,
1038,Cheruiyot ,Dorothy,,,,,,,,,,,,,,,,,
1039,Chebet ,Lyn,,,,,,,,,,,,,,,,,
1040,Copuck ,Esther,,,,,,,,,,,,,,,,,
1041,Mukhwana ,John,,,,,,,,,,,,,,,,,
1042,Kipchumba ,Patrick,,,,,,,,,,,,,,,,,
1043,kipkoech ,Adrian,,,,,,,,,,,,,,,,,
1044,Lagat ,Salina,,,,,,,,,,,,,,,,,
1045,Ruto ,Geoffrey,,,,,,,,,,,,,,,,,
1046,Barasa ,Celestine,,,,,,,,,,,,,,,,,
1047,Tano Mbithi,Arthur,,,,,,,,,,,,,,,,,
1048,Jepkoech ,Costa,,,,,,,,,,,,,,,,,
1049,Onalo Theodore,Paul,,,,,,,,,,,,,,,,,
1050,Omwenga ,Cedric,,,,,,,,,,,,,,,,,
1051,Birech ,Priscah,,,,,,,,,,,,,,,,,
1052,Kibet ,Emmanuel,,,,,,,,,,,,,,,,,
1053,Chepchirchir ,Angela,,,,,,,,,,,,,,,,,
1054,Hassan ,Yasmin,,,,,,,,,,,,,,,,,
1055,Kiptoo ,Aaron,,,,,,,,,,,,,,,,,
1056,Towett ,Mark,,,,,,,,,,,,,,,,,
1057,Maina ,Nathan,,,,,,,,,,,,,,,,,
1058,Kisabit ,Ryian,,,,,,,,,,,,,,,,,
1059,Kandie ,Phibian,,,,,,,,,,,,,,,,,
1061,Mukiri ,Cecilia,,,,,,,,,,,,,,,,,
1062,Wairagu ,Sylvia,,,,,,,,,,,,,,,,,
1063,Chemutai ,Malia,,,,,,,,,,,,,,,,,
1064,Jepkemboi Maina,Charity,,,,,,,,,,,,,,,,,
1065,Jepkorir ,Faith,,,,,,,,,,,,,,,,,
1066,Korir ,Caroline,,,,,,,,,,,,,,,,,
1067,Kambo ,Susan,,,,,,,,,,,,,,,,,
1068,Kibet Bii,Ephraim,,,,,,,,,,,,,,,,,
1069,Rajab ,Nassim,,,,,,,,,,,,,,,,,
1070,Wanjiru ,Medrine,,,,,,,,,,,,,,,,,
1071,Samantha ,Kristie,,,,,,,,,,,,,,,,,
1072,Cherop ,Christine,,,,,,,,,,,,,,,,,
1073,Kiplimo ,Adrian,,,,,,,,,,,,,,,,,
1074,Tanui ,Nyigan,,,,,,,,,,,,,,,,,
1075,Kemboi ,Bradley,,,,,,,,,,,,,,,,,
1076,Rop ,Rael,,,,,,,,,,,,,,,,,
1077,Chabeda ,Hellen,,,,,,,,,,,,,,,,,
1078,Serem ,Titus,,,,,,,,,,,,,,,,,
1079,Kiptoo ,Rhodah,,,,,,,,,,,,,,,,,
1080,Chesire ,William,,,,,,,,,,,,,,,,,
1081,Cherono ,Janet,,,,,,,,,,,,,,,,,
1082,Jepleting ,Michelle,,,,,,,,,,,,,,,,,
1083,Mwangi ,Patrick,,,,,,,,,,,,,,,,,
1084,Cheruiyot ,Ian,,,,,,,,,,,,,,,,,
1085,Nyambura ,Josephine,,,,,,,,,,,,,,,,,
1086,Kossom ,Mary,,,,,,,,,,,,,,,,,
1087,Rono ,Hillary,,,,,,,,,,,,,,,,,
1088,Kipkemboi ,Abel,,,,,,,,,,,,,,,,,
1089,Achieng ,Natasha,,,,,,,,,,,,,,,,,
1090,Atieno ,Kayla,,,,,,,,,,,,,,,,,
1091,Rop ,Felix,,,,,,,,,,,,,,,,,
1092,Murithi ,Justus,,,,,,,,,,,,,,,,,
1093,Anunda ,Francis,,,,,,,,,,,,,,,,,
1094,Cherop ,Grace,,,,,,,,,,,,,,,,,
1095,Jepchumba ,Justine,,,,,,,,,,,,,,,,,
1096,Butiya ,Nicole,,,,,,,,,,,,,,,,,
1097,Serem ,Ruth,,,,,,,,,,,,,,,,,
1098,Kipkorir ,Mathew,,,,,,,,,,,,,,,,,
1099,Kassamjee ,Sakina,,,,,,,,,,,,,,,,,
1100,Waithaka,Mark,,,,,,,,,,,,,,,,,
1101,Jepkemboi ,Shantel,,,,,,,,,,,,,,,,,
1102,Kiprop ,Warren,,,,,,,,,,,,,,,,,
1103,Caroline ,Odhiambo,,,,,,,,,,,,,,,,,
1104,Rehal ,Harvey,,,,,,,,,,,,,,,,,
1105,Ndalila ,Sylvia,,,,,,,,,,,,,,,,,
1106,Nasieku ,Faith,,,,,,,,,,,,,,,,,
1107,Ego ,Everlyn,,,,,,,,,,,,,,,,,
1108,Kipruto ,Canan,,,,,,,,,,,,,,,,,
1109,Chirchir ,Evans,,,,,,,,,,,,,,,,,
1110,Machogu ,Mao,,,,,,,,,,,,,,,,,
1111,Wambua ,Elizabeth,,,,,,,,,,,,,,,,,
1112,Cheptoo ,Nataya,,,,,,,,,,,,,,,,,
1113,Maina ,Rose,,,,,,,,,,,,,,,,,
1114,Adhiambo ,Moureen,,,,,,,,,,,,,,,,,
1115,Kipchirchir ,Elvis,,,,,,,,,,,,,,,,,
1116,Manoah ,Dennis,,,,,,,,,,,,,,,,,
1118,Kemunto ,Josephine,,,,,,,,,,,,,,,,,
1119,Musimbi ,Daphine,,,,,,,,,,,,,,,,,
1120,Kipkoech ,Limo,,,,,,,,,,,,,,,,,
1121,Ndanu ,Anthony,,,,,,,,,,,,,,,,,
1122,Karonei ,Martha,,,,,,,,,,,,,,,,,
1123,Kosgei ,Lilian,,,,,,,,,,,,,,,,,
1124,Kogo ,Gilbert,,,,,,,,,,,,,,,,,
1125,Chepkoech ,Nancy,,,,,,,,,,,,,,,,,
1126,Mibey ,Sylvia,,,,,,,,,,,,,,,,,
1127,Cherop ,Rael,,,,,,,,,,,,,,,,,
1128,Kemunto ,Julia,,,,,,,,,,,,,,,,,
1129,Anjeline ,Marina,,,,,,,,,,,,,,,,,
1130,Kiplagat ,Martin,,,,,,,,,,,,,,,,,
1131,Salim Ali,Muhammad,,,,,,,,,,,,,,,,,
1132,Kisabit ,Philip,,,,,,,,,,,,,,,,,
1133,Kirui ,Jacqueline,,,,,,,,,,,,,,,,,
1134,Sigege ,Isaac,,,,,,,,,,,,,,,,,
1135,Cherop ,Daniella,,,,,,,,,,,,,,,,,
1136,Chemutai ,Daisy,,,,,,,,,,,,,,,,,
1137,Sigege ,Isaac,,,,,,,,,,,,,,,,,
1138,Cheptoo Williams,Anne,,,,,,,,,,,,,,,,,
1139,Kemboi ,Meshack,,,,,,,,,,,,,,,,,
1140,Mose ,Sally,,,,,,,,,,,,,,,,,
1141,Jumah ,George,,,,,,,,,,,,,,,,,
1142,Otadoh ,Caren,,,,,,,,,,,,,,,,,
1143,Shajapur ,Mohammed,,,,,,,,,,,,,,,,,
1144,Cheruiyot ,Beatrice,,,,,,,,,,,,,,,,,
1145,Jelagat ,Emily,,,,,,,,,,,,,,,,,
1146,Angulu ,Grace,,,,,,,,,,,,,,,,,
1147,Julius Kigen,Glen,,,,,,,,,,,,,,,,,
1148,Jepkoech ,Flomena,,,,,,,,,,,,,,,,,
1149,Adan ,Isaac,,,,,,,,,,,,,,,,,
1150,Cherono ,Gladys,,,,,,,,,,,,,,,,,
1151,Cherono ,Precious,,,,,,,,,,,,,,,,,
1152,Wacuka ,Catherine,,,,,,,,,,,,,,,,,
1153,Biwott ,Gladys,,,,,,,,,,,,,,,,,
1154,Kiprono ,Irene,,,,,,,,,,,,,,,,,
1155,Chelimo ,Nellie,,,,,,,,,,,,,,,,,
1156,Asuke ,Gian,,,,,,,,,,,,,,,,,
1157,Jepchirchir ,Sylvia,,,,,,,,,,,,,,,,,
1158,J Birgen,Delvin,,,,,,,,,,,,,,,,,
1159,Ngoitsi ,Hope,,,,,,,,,,,,,,,,,
1160,Birgen ,Delvin,,,,,,,,,,,,,,,,,
1161,Tallam ,Anne,,,,,,,,,,,,,,,,,
1162,Cherutich ,Sharon,,,,,,,,,,,,,,,,,
1163,Maina ,Christine,,,,,,,,,,,,,,,,,
1164,Cherop ,Nancy,,,,,,,,,,,,,,,,,
1165,Kosgei ,Patropha,,,,,,,,,,,,,,,,,
1166,Jeptoo Kademi,Emma,,,,,,,,,,,,,,,,,
1167,Husein Ali,Mohammed,,,,,,,,,,,,,,,,,
1168,Murgor ,Badyspencer,,,,,,,,,,,,,,,,,
1169,Kamau ,Monica,,,,,,,,,,,,,,,,,
1170,Mutai ,Fennary,,,,,,,,,,,,,,,,,
1171,Muchesi ,Amos,,,,,,,,,,,,,,,,,
1172,Nyaundi ,Jeremiah,,,,,,,,,,,,,,,,,
1173,Remmy Kasili,Dr.,,,,,,,,,,,,,,,,,
1174,Kemei ,Myles,,,,,,,,,,,,,,,,,
1175,Kipkemboi ,Robert,,,,,,,,,,,,,,,,,
1176,Chebichii ,Gaudencia,,,,,,,,,,,,,,,,,
1177,Mutai ,Alice,,,,,,,,,,,,,,,,,
1178,Misoi ,Joyce,,,,,,,,,,,,,,,,,
1179,Kipchirchir ,Alvin,,,,,,,,,,,,,,,,,
1180,C. Sang,Jennifer,,,,,,,,,,,,,,,,,
1181,Kiplagat ,Mary,,,,,,,,,,,,,,,,,
1182,Bisau ,Maurice,,,,,,,,,,,,,,,,,
1183,Keino ,Gladys,,,,,,,,,,,,,,,,,
1184,Akiruga ,Ashley,,,,,,,,,,,,,,,,,
1185,Akiruga ,Adrian,,,,,,,,,,,,,,,,,
1186,Jama ,Muhamud,,,,,,,,,,,,,,,,,
1187,Kemboi ,Beatrice,,,,,,,,,,,,,,,,,
1188,Nelima ,Rebecca,,,,,,,,,,,,,,,,,
1189,Okwaro ,Adeline,,,,,,,,,,,,,,,,,
1190,Chelimo Williams,Christine,,,,,,,,,,,,,,,,,
1191,Daniel O.,Dr.,,,,,,,,,,,,,,,,,
1192,Kipchirchir ,Ian,,,,,,,,,,,,,,,,,
1193,Rop ,Betty,,,,,,,,,,,,,,,,,
1194,Kemboi ,Emily,,,,,,,,,,,,,,,,,
1195,Cyrus Obwacha,Arori,,,,,,,,,,,,,,,,,
1196,Nyakerario ,Evalyne,,,,,,,,,,,,,,,,,
1197,Walukano Mwasame,Michael,,,,,,,,,,,,,,,,,
1198,Kibet ,Allen,,,,,,,,,,,,,,,,,
1199,Muliro Wafula,Samson,,,,,,,,,,,,,,,,,
1200,Shah ,Reena,,,,,,,,,,,,,,,,,
1201,Michika ,Wycliff,,,,,,,,,,,,,,,,,
1202,Hussein Kassamjee,Dr.,,,,,,,,,,,,,,,,,
1203,Kassamjee ,Mubarrack,,,,,,,,,,,,,,,,,
1204,Allibori ,Alexiya,,,,,,,,,,,,,,,,,
1205,Omae ,Wilber,,,,,,,,,,,,,,,,,
1206,Rop ,Leah,,,,,,,,,,,,,,,,,
1207,Jepchirchir ,Sharon,,,,,,,,,,,,,,,,,
1208,Waceke Ngacho,Maximiller,,,,,,,,,,,,,,,,,
1209,Chebaibai Rutto,Joy,,,,,,,,,,,,,,,,,
1210,Kaliny 722235034,Salina,,,,,,,,,,,,,,,,,
1211,Rotich ,Mercy,,,,,,,,,,,,,,,,,
1212,Mutai 723826751,Hellen,,,,,,,,,,,,,,,,,
1213,Kiprotich ,Basil,,,,,,,,,,,,,,,,,
1214,Jeberur ,Emma,,,,,,,,,,,,,,,,,
1215,Kevin Mwaura,Dr.,,,,,,,,,,,,,,,,,
1216,Nyathira ,Elizabeth,,,,,,,,,,,,,,,,,
1217,Abdi Noor,Ahmed,,,,,,,,,,,,,,,,,
1218,Kinanu Muriungi,Ann,,,,,,,,,,,,,,,,,
1219,Kibor ,Monicah,,,,,,,,,,,,,,,,,
1220,Niyo ,Elyon,,,,,,,,,,,,,,,,,
1221,Narotso 716757214,Yvonne,,,,,,,,,,,,,,,,,
1222,Kiprop ,Brian,,,,,,,,,,,,,,,,,
1223,Jepchirchir Sitienei,Tecla,,,,,,,,,,,,,,,,,
1224,.C. Emurugat,Akware,,,,,,,,,,,,,,,,,
1225,Biwott ,Stanley,,,,,,,,,,,,,,,,,
1226,Jeruto Tanui,Alice,,,,,,,,,,,,,,,,,
1227,Kipchirchir Baliat,Collins,,,,,,,,,,,,,,,,,
1228,Chebet Baliat,Patience,,,,,,,,,,,,,,,,,
1229,Monari 717067125,Hillary,,,,,,,,,,,,,,,,,
1230,Kiige ,Shadrack,,,,,,,,,,,,,,,,,
1231,Wekesa Wanjala,Ryan,,,,,,,,,,,,,,,,,
1232,Cherotich Rono,Emily,,,,,,,,,,,,,,,,,
1233,Songok ,Esther,,,,,,,,,,,,,,,,,
1234,Maina 726290340,Audrey,,,,,,,,,,,,,,,,,
1235,Kipkorir Sugut,Ronald,,,,,,,,,,,,,,,,,
1236,Mbogori 720695918,Elius,,,,,,,,,,,,,,,,,
1237,Sitienei ,Naomi,,,,,,,,,,,,,,,,,
1238,Lomor Esinyen,Bedan,,,,,,,,,,,,,,,,,
1239,Kimutai ,Brandon,,,,,,,,,,,,,,,,,
1240,Felis Njeri,Sr.,,,,,,,,,,,,,,,,,
1241,Nyaundi ,Fortunate,,,,,,,,,,,,,,,,,
1242,Nyaundi ,Precious,,,,,,,,,,,,,,,,,
1243,Jelimo ,Shelma,,,,,,,,,,,,,,,,,
1244,Chepkemboi Ketter,Sharon,,,,,,,,,,,,,,,,,
1245,Tuwei ,Egline,,,,,,,,,,,,,,,,,
1246,Kaptum ,Winnie,,,,,,,,,,,,,,,,,
1247,Kotut ,Ezron,,,,,,,,,,,,,,,,,
1248,Jebet Ruto,Terry,,,,,,,,,,,,,,,,,
1249,Ruto ,Wayne,,,,,,,,,,,,,,,,,
1250,Kiptorgo 722639981,Jane,,,,,,,,,,,,,,,,,
1251,Dabaso ,Nasra,,,,,,,,,,,,,,,,,
1252,Fernandes ,Karl,,,,,,,,,,,,,,,,,
1253,Ondigo ,Beryl,,,,,,,,,,,,,,,,,
1254,Kemboi ,Vincent,,,,,,,,,,,,,,,,,
1255,Kaino ,Rael,,,,,,,,,,,,,,,,,
1256,Rose Kidemu,Ira,,,,,,,,,,,,,,,,,
1257,Chebet ,Jolee,,,,,,,,,,,,,,,,,
1258,Liyavi ,Pamela,,,,,,,716124891,,,,,,,,,,
1259,Maiyo ,Francis,,,,,,,721956580,,,,,,,,,,
1260,Mulindo ,D,,,,,,,710937977,,,,,,,,,,
1261,Kimutai Kosgei,Kim,,,,,,,,,,,,,,,,,
1262,Kangogo ,Abraham,,,,,,,720376310,,,,,,,,,,
1263,Rose Kidemu,Ira,,,,,,,,,,,,,,,,,
1264,K Suter,Joseph,,,,,,,,,,,,,,,,,
1265,Mwaniki ,Anthony,,,,,,,,,,,,,,,,,
1266,Jepkorir Melly,Emily,,,,,,,,,,,,,,,,,
1267,Imali Ngoitsi,Jill,,,,,,,,,,,,,,,,,
1268,Chemwetich ,Everline,,,,,,,,,,,,,,,,,
1269,Lagat ,Stephen,,,,,,,,,,,,,,,,,
1270,Keitany ,Nancy,,,,,,,,,,,,,,,,,
1271,Kemboi ,Daisy,,,,,,,,,,,,,,,,,
1272,Cherono Kosgei,Gloria,,,,,,,,,,,,,,,,,
1273,Kirwa ,Grace,,,,,,,725526265,,,,,,,,,,
1274,Wanyonyi ,Brenda,,,,,,,799951247,,,,,,,,,,
1275,Kiprop Misoi,Wayne,,,,,,,,,,,,,,,,,
1276,Isia ,Shanice,,,,,,,,,,,,,,,,,
1277,Chepkosgei ,Rosa,,,,,,,,,,,,,,,,,
1278,Jepchirchir ,Judy,,,,,,,,,,,,,,,,,
1279,Macharia ,James,,,,,,,720332732,,,,,,,,,,
1280,Zipporah ,Dr.Tarus,,,,,,,,,,,,,,,,,
1281,Kebenei ,Pracily,,,,,,,,,,,,,,,,,
1282,Wanjiku ,Tiphany,,,,,,,,,,,,,,,,,
1283,Keino ,Gladys,,,,,,,723845528,,,,,,,,,,
1284,Jepkemboi ,Esther,,,,,,,,,,,,,,,,,
1285,Chebet ,Sally,,,,,,,,,,,,,,,,,
1286,Nyanchama Machani,Ayla,,,,,,,,,,,,,,,,,
1287,Adams ,Farah,,,,,,,,,,,,,,,,,
1288,Wafula ,Mercy,,,,,,,,,,,,,,,,,
1289,Metikan ,Parisio,,,,,,,,,,,,,,,,,
1290,Jepkosgei ,Faith,,,,,,,,,,,,,,,,,
1291,Cheruiyot Chumba,John,,,,,,,,,,,,,,,,,
1292,J Ngetich,Florence,,,,,,,,,,,,,,,,,
1293,Kiprop Bor,Brian,,,,,,,,,,,,,,,,,
1294,Leitich ,Audrey,,,,,,,,,,,,,,,,,
1295,Kipruto Kiplel,Edwin,,,,,,,,,,,,,,,,,
1296,John Kibet,Koske,,,,,,,,,,,,,,,,,
1297,Psinyen ,Mirriam,,,,,,,,,,,,,,,,,
1298,Akumu Owino,Serfine,,,,,,,,,,,,,,,,,
1299,Jepchumba Kiprop,Lynace,,,,,,,,,,,,,,,,,
1300,Pamela T.K,Dr.,,,,,,,,,,,,,,,,,
1301,J. Kiplagat,Claire,,,,,,,,,,,,,,,,,
1302,Kimutai Kemboi,Brandon,,,,,,,,,,,,,,,,,
1303,Cheruto Sugut,Brianna,,,,,,,,,,,,,,,,,
1304,Too ,Mary,,,,,,,,,,,,,,,,,
1305,K Rono,Eliud,,,,,,,,,,,,,,,,,
1306,Kasyoki ,Felistus,,,,,,,,,,,,,,,,,
1307,Oggot ,Paul,,,,,,,,,,,,,,,,,
1308,Songoni ,Edline,,,,,,,,,,,,,,,,,
1309,Malel ,Jane,,,,,,,,,,,,,,,,,
1310,Celia Ngetich,Dr.,,,,,,,,,,,,,,,,,
1311,Okwiri ,Catherine,,,,,,,,,,,,,,,,,
1312,Juma Ouma,Adrian,,,,,,,,,,,,,,,,,
1313,Kirui Sang,Ian,,,,,,,,,,,,,,,,,
1314,Koech ,Brian,,,,,,,,,,,,,,,,,
1315,Angweny ,Daughty,,,,,,,,,,,,,,,,,
1316,Chebet ,Eunice,,,,,,,,,,,,,,,,,
1317,Daliti ,Gladys,,,,,,,,,,,,,,,,,
1318,Bonuke ,Ivy,,,,,,,,,,,,,,,,,
1319,Macharia ,Franklin,,,,,,,,,,,,,,,,,
1320,Okutoyi Ochiba,Ishaq,,,,,,,,,,,,,,,,,
1321,Jemutai ,Lynn,,,,,,,,,,,,,,,,,
1322,I Hassanali,Durriyah,,,,,,,,,,,,,,,,,
1323,Jerotich ,Joy,,,,,,,,,,,,,,,,,
1324,Joram Sunguti,Dr.,,,,,,,,,,,,,,,,,
1325,Kipkalya Rotich,Justin,,,,,,,,,,,,,,,,,
1326,Koskei ,Grace,,,,,,,,,,,,,,,,,
1327,Mungesa ,Herbert,,,,,,,,,,,,,,,,,
1328,Sipalla 2,Florence,,,,,,,,,,,,,,,,,
1329,Mong'are ,Prisca,,,,,,,,,,,,,,,,,
1330,Rono ,Peter,,,,,,,,,,,,,,,,,
1331,Kusimba ,Barbara,,,,,,,,,,,,,,,,,
1332,Kipleting ,Bradley,,,,,,,,,,,,,,,,,
1333,Kipchumba Kiprono,Austeen,,,,,,,,,,,,,,,,,
1334,Kipkalya Keter,Justice,,,,,,,,,,,,,,,,,
1335,K.G Lagat,Ethan,,,,,,,,,,,,,,,,,
1336,Kilimo Kisang,Mark,,,,,,,,,,,,,,,,,
1337,Chelimo Rotich,Monica,,,,,,,,,,,,,,,,,
1338,Jepkoech ,Mitchelle,,,,,,,,,,,,,,,,,
1339,Rori ,Reuben,,,,,,,,,,,,,,,,,
1340,L. kusimba,Bartholomew,,,,,,,,,,,,,,,,,
1341,Pendo Waime,Dalita,,,,,,,,,,,,,,,,,
1342,Kanyi ,Victor,,,,,,,,,,,,,,,,,
1343,Jepngetich ,Mellanie,,,,,,,,,,,,,,,,,
1344,Chege ,Stephen,,,,,,,,,,,,,,,,,
1345,Kavaya ,Linet,,,,,,,,,,,,,,,,,
1346,Korir ,Antonette,,,,,,,,,,,,,,,,,
1347,Wanjama ,Esther,,,,,,,,,,,,,,,,,
1348,Maina ,Anna,,,,,,,,,,,,,,,,,
1349,Cherotich ,Neema,,,,,,,,,,,,,,,,,
1350,Kafuta ,Samuel,,,,,,,,,,,,,,,,,
1351,Omondi ,Eric,,,,,,,,,,,,,,,,,
1352,Kariuki ,Salome,,,,,,,,,,,,,,,,,
1353,Kipruto ,Brenda,,,,,,,,,,,,,,,,,
1354,Kiprop ,Sylus,,,,,,,,,,,,,,,,,
1355,Murgor ,Mellany,,,,,,,,,,,,,,,,,
1356,Kiyai ,Jeniffer,,,,,,,,,,,,,,,,,
1357,Kiplimo ,Ednah,,,,,,,,,,,,,,,,,
1358,Yaseen ,Tasnim,,,,,,,,,,,,,,,,,
1359,Jepkoech ,Elizabeth,,,,,,,,,,,,,,,,,
1360,Talaam ,Sidika,,,,,,,,,,,,,,,,,
1361,Kipngetich ,Kyle,,,,,,,,,,,,,,,,,
1362,Kiprotich ,Javier,,,,,,,,,,,,,,,,,
1363,Chepchirchir ,Prudence,,,,,,,,,,,,,,,,,
1364,Ali ,Mohammed,,,,,,,,,,,,,,,,,
1365,Cheruiyot ,David,,,,,,,,,,,,,,,,,
1366,Kibet ,Allan,,,,,,,,,,,,,,,,,
1367,Kosgei ,Leah,,,,,,,,,,,,,,,,,
1368,Sigey ,Mercy,,,,,,,,,,,,,,,,,
1369,Ombati ,Benson,,,,,,,,,,,,,,,,,
1370,Situma ,Keysha,,,,,,,,,,,,,,,,,
1371,Namwaya ,Doris,,,,,,,,,,,,,,,,,
1372,Mutai ,Joy,,,,,,,,,,,,,,,,,
1373,Njeri ,Selina,,,,,,,,,,,,,,,,,
1374,Sigey ,Debra,,,,,,,,,,,,,,,,,
1375,Keino ,Rose,,,,,,,,,,,,,,,,,
1376,Noor ,Mohammed,,,,,,,,,,,,,,,,,
1377,Kasili ,Mwema,,,,,,,,,,,,,,,,,
1378,Prisca ,Chelangat,,,,,,,,,,,,,,,,,
1379,Chepkorir ,Bertilla,,,,,,,,,,,,,,,,,
1380,Turo ,Charles,,,,,,,,,,,,,,,,,
1381,Chebet ,Janeth,,,,,,,,,,,,,,,,,
1382,Maritim ,Edna,,,,,,,,,,,,,,,,,
1383,Maritim ,Onesmus,,,,,,,,,,,,,,,,,
1384,lagat ,christine,,,,,,,,,,,,,,,,,
1385,Chebet ,Acsha,,,,,,,,,,,,,,,,,
1386,Sammy ,Njue,,,,,,,,,,,,,,,,,
1387,Kadenge ,Bryson,,,,,,,,,,,,,,,,,
1388,Terer ,Alice,,,,,,,,,,,,,,,,,
1389,Agnes ,Yator,,,,,,,,,,,,,,,,,
1390,Kipchoge ,Joseph,,,,,,,,,,,,,,,,,
1391,Koech ,Margaret,,,,,,,,,,,,,,,,,
1394,Laban ,Konga,,,,,,,,,,,,,,,,,
1395,Okoth ,Alphonce,,,,,,,,,,,,,,,,,
1396,Agnes ,RoseNiva,,,,,,,,,,,,,,,,,
1397,Kassamjee ,Arva,,,,,,,,,,,,,,,,,
1398,Maritim ,Lora,,,,,,,,,,,,,,,,,
1400,Sang ,Alexander,,,,,,,,,,,,,,,,,
1401,Kiplebel ,Stella,,,,,,,,,,,,,,,,,
1402,Titus ,Kosgei,,,,,,,,,,,,,,,,,
1403,Seron ,Levy,,,,,,,,,,,,,,,,,
1404,Kosgei ,Jassim,,,,,,,,,,,,,,,,,
1405,Cheruiyot ,Elizabeth,,,,,,,,,,,,,,,,,
1406,Mutai ,Kiprono,,,,,,,,,,,,,,,,,
1407,Olesi ,Caroline,,,,,,,,,,,,,,,,,
1408,Tinina ,Maria,,,,,,,,,,,,,,,,,
1409,Kirwa ,Violah,,,,,,,,,,,,,,,,,
1410,Chemelil ,Hilda,,,,,,,,,,,,,,,,,
1411,Ketere ,Ryan,,,,,,,,,,,,,,,,,
1412,Omare ,Mitchelle,,,,,,,,,,,,,,,,,
1413,Langat ,Benard,,,,,,,,,,,,,,,,,
1414,Buke ,Nura,,,,,,,,,,,,,,,,,
1415,Adan ,Mohammed,,,,,,,,,,,,,,,,,
1416,Kosgey ,Wilson,,,,,,,,,,,,,,,,,
1417, ,Shinn,,,,,,,,,,,,,,,,,
1418,Cheruto ,Carolyne,,,,,,,,,,,,,,,,,
1419,Opinde ,Hilda,,,,,,,,,,,,,,,,,
1420,Kayobia ,Bruce,,,,,,,,,,,,,,,,,
1421,Chelimo ,Veronica,,,,,,,,,,,,,,,,,
1422,mmbone ,Christine,,,,,,,,,,,,,,,,,
1423,Bett ,Patrick,,,,,,,,,,,,,,,,,
1424,Manthi ,Carlton,,,,,,,,,,,,,,,,,
1425,Venus ,Makilap,,,,,,,,,,,,,,,,,
1426,Musoi ,Faith,,,,,,,,,,,,,,,,,
1427,Choge ,Elisha,,,,,,,,,,,,,,,,,
1428,Kiplagat ,Abraham,,,,,,,,,,,,,,,,,
1429,Kanuu ,Sharon,,,,,,,,,,,,,,,,,
1430,Maritim ,Hilda,,,,,,,,,,,,,,,,,
1431,nNyakiti ,Arthur,,,,,,,,,,,,,,,,,
1432,Kurgat ,Tecla,,,,,,,,,,,,,,,,,
1433,Kendele ,Jacob,,,,,,,,,,,,,,,,,
1434,Jeruto ,Sylvia,,,,,,,,,,,,,,,,,
1435,Lagat ,Vincent,,,,,,,,,,,,,,,,,
1436,Nyariki ,Sylvia,,,,,,,,,,,,,,,,,
1437,Saina ,Stephanie,,,,,,,,,,,,,,,,,
1438,Ayuko ,Melanie,,,,,,,,,,,,,,,,,
1439,Konja ,Angela,,,,,,,,,,,,,,,,,
1440,Serem ,Philemon,,,,,,,,,,,,,,,,,
1441,Akinyi ,Millicent,,,,,,,,,,,,,,,,,
1442,Kirui ,Wilson,,,,,,,,,,,,,,,,,
1443,Tola ,Chrispo,,,,,,,,,,,,,,,,,
1444,Jelagat ,Pamela,,,,,,,,,,,,,,,,,
1445,kipchumba ,Ray,,,,,,,,,,,,,,,,,
1446,Melly ,Sarah,,,,,,,,,,,,,,,,,
1447,Kemei ,Daniel,,,,,,,,,,,,,,,,,
1448,Mwangi ,John,,,,,,,,,,,,,,,,,
1449,Cheptum ,Eunice,,,,,,,,,,,,,,,,,
1450, ,Dalal,,,,,,,,,,,,,,,,,
1451,Wema ,Bethel,,,,,,,,,,,,,,,,,
1452,Baraka ,Favour,,,,,,,,,,,,,,,,,
1453,Kipkemboi ,Carson,,,,,,,,,,,,,,,,,
1454,Rono ,Ivy,,,,,,,,,,,,,,,,,
1455,Scott ,Harriet,,,,,,,,,,,,,,,,,
1456,Maina ,Brandon,,,,,,,,,,,,,,,,,
1457,Lalji ,Kanta,,,,,,,,,,,,,,,,,
1458,Saina ,Sharon,,,,,,,,,,,,,,,,,
1459,Kosgei ,Caren,,,,,,,,,,,,,,,,,
1460,Williams ,Elizabeth,,,,,,,,,,,,,,,,,
1461,Musisi ,Isabel,,,,,,,,,,,,,,,,,
1462,shisili ,Eunice,,,,,,,,,,,,,,,,,
1463,Keter ,Elisha,,,,,,,,,,,,,,,,,
1464,Olwizi ,Sarah,,,,,,,,,,,,,,,,,
1465,Warutumo ,Anne,,,,,,,,,,,,,,,,,
1466,kibet ,emmanuel,,,,,,,,,,,,,,,,,
1467,Nyamo ,Elizabeth,,,,,,,,,,,,,,,,,
1468,Ongode ,Collins,,,,,,,,,,,,,,,,,
1469,Keino ,Lydia,,,,,,,,,,,,,,,,,
1470,Tamnai ,Lorraine,,,,,,,,,,,,,,,,,
1471,Chelangat ,Stephanie,,,,,,,,,,,,,,,,,
1472,Kiplagat ,Viola,,,,,,,,,,,,,,,,,
1473,Tallam ,Petter,,,,,,,,,,,,,,,,,
1474,Geofrey ,Musungu,,,,,,,,,,,,,,,,,
1475,Tallam ,Titus,,,,,,,,,,,,,,,,,
1476,Gathoni ,Mellanie,,,,,,,,,,,,,,,,,
1477,Kyalo ,Regina,,,,,,,,,,,,,,,,,
1478,Abdi ,Yusuf,,,,,,,,,,,,,,,,,
1479,Chepkemboi ,Nicole,,,,,,,,,,,,,,,,,
1480,Kipngetich ,Jayden,,,,,,,,,,,,,,,,,
1481,Wangare ,AnnDaisy,,,,,,,,,,,,,,,,,
1482,Korir ,Julia,,,,,,,,,,,,,,,,,
1483,Kipkemoi ,Kedrick,,,,,,,,,,,,,,,,,
1484,Singa ,Josphat,,,,,,,,,,,,,,,,,
1485,Chepkoech ,Victoria,,,,,,,,,,,,,,,,,
1486,Sawe ,Ruth,,,,,,,,,,,,,,,,,
1487,Serem ,Peter,,,,,,,,,,,,,,,,,
1488,Pauline ,Ayusi,,,,,,,,,,,,,,,,,
1489,Olwizi ,Emmanuel,,,,,,,,,,,,,,,,,
1490,Cherotich ,Ashley,,,,,,,,,,,,,,,,,
1492,Mugaya ,Dennis,,,,,,,,,,,,,,,,,
1493,Kibet ,Peninah,,,,,,,,,,,,,,,,,
1494,Elizabeth ,Chelimo,,,,,,,,,,,,,,,,,
1495,Njuguna ,Mary,,,,,,,,,,,,,,,,,
1496,Chepkirui ,Evaline,,,,,,,,,,,,,,,,,
1497,Nate ,Jayden,,,,,,,,,,,,,,,,,
1498,Kiptepis ,Isaac,,,,,,,,,,,,,,,,,
1499,Chepngenoh ,Bicoty,,,,,,,,,,,,,,,,,
1500,Luvai ,Gerry,,,,,,,,,,,,,,,,,
1501,Kosgei ,Shanice,,,,,,,,,,,,,,,,,
1502,Amunze ,Grace,,,,,,,,,,,,,,,,,
1503,Mibey ,Priscilla,,,,,,,,,,,,,,,,,
1504,Maritim ,Beryl,,,,,,,,,,,,,,,,,
1505,Everline ,Nabwala,,,,,,,,,,,,,,,,,
1506,Busienei ,Rosaline,,,,,,,,,,,,,,,,,
1507,Lovet ,Marvel,,,,,,,,,,,,,,,,,
1508,Kigen ,Konel,,,,,,,,,,,,,,,,,
1509,Kiprotich ,Fionnah,,,,,,,,,,,,,,,,,
1510,Tolgos ,Susan,,,,,,,,,,,,,,,,,
1511,Byebei ,Eunice,,,,,,,,,,,,,,,,,
1512,Kipkore ,Sandra,,,,,,,,,,,,,,,,,
1513,Korir ,Wilson,,,,,,,,,,,,,,,,,
1514,Rumosia ,Paul,,,,,,,,,,,,,,,,,
1515,Chebet ,Emily,,,,,,,,,,,,,,,,,
1516,Kipkemboi ,Kevin,,,,,,,,,,,,,,,,,
1517,Jepchumba ,Pauline,,,,,,,,,,,,,,,,,
1518,Rono ,Jennifer,,,,,,,,,,,,,,,,,
1519,Kirui ,Stacy,,,,,,,,,,,,,,,,,
1520,Arita ,Deloitte,,,,,,,,,,,,,,,,,
1521,Jeruto ,Angela,,,,,,,,,,,,,,,,,
1522,Luhumyo ,Loice,,,,,,,,,,,,,,,,,
1523,Getanda ,Amos,,,,,,,,,,,,,,,,,
1524,Chemjor ,Charles,,,,,,,,,,,,,,,,,
1525,Rota ,Irene,,,,,,,,,,,,,,,,,
1526,Hussein ,Naima,,,,,,,,,,,,,,,,,
1527,Choge ,Stacy,,,,,,,,,,,,,,,,,
1528,Too ,Julia,,,,,,,,,,,,,,,,,
1529,Hash ,Omar,,,,,,,,,,,,,,,,,
1530,Kamau ,Bereta,,,,,,,,,,,,,,,,,
1531,Nyachiro ,Jeremy,,,,,,,,,,,,,,,,,
1532,Melly ,Samson,,,,,,,,,,,,,,,,,
1533,Bibo ,Lennah,,,,,,,,,,,,,,,,,
1534,Chebii ,Caroline,,,,,,,,,,,,,,,,,
1535,Ongecha ,Faith,,,,,,,,,,,,,,,,,
1536,Akute ,Agneta,,,,,,,,,,,,,,,,,
1537,Maluilui ,Thomas,,,,,,,,,,,,,,,,,
1538,Kurgat ,Timon,,,,,,,,,,,,,,,,,
1539,Dalal ,Ali,,,,,,,,,,,,,,,,,
1540,Naburuck ,Martha,,,,,,,,,,,,,,,,,
1541,Njuguna ,Jason,,,,,,,,,,,,,,,,,
1542,Mulwa ,David,,,,,,,,,,,,,,,,,
1543,Cheptek ,Janet,,,,,,,,,,,,,,,,,
1544,shigoli ,patrick,,,,,,,,,,,,,,,,,
1545,mugun ,mark,,,,,,,,,,,,,,,,,
1546,ahmed ,fatuma,,,,,,,,,,,,,,,,,
1547,jepchumba ,Gladys,,,,,,,,,,,,,,,,,
1548,Jeptoo ,Salina,,,,,,,,,,,,,,,,,
1549, ,Suri,,,,,,,,,,,,,,,,,
1550,Ahmed ,Nawal,,,,,,,,,,,,,,,,,
1551,Ronny ,Kenei,,,,,,,,,,,,,,,,,
1552,Abubakar ,Shoug,,,,,,,,,,,,,,,,,
1553,Odero ,Suprine,,,,,,,,,,,,,,,,,
1554,Nicole ,Fancy,,,,,,,,,,,,,,,,,
1555,Abubakar ,Shrooq,,,,,,,,,,,,,,,,,
1556,Chepchirchir ,Charlene,,,,,,,,,,,,,,,,,
1557,Kobilo ,Katya,,,,,,,,,,,,,,,,,
1558,Chelagat ,Alexis,,,,,,,,,,,,,,,,,
1559,Were ,Obed,,,,,,,,,,,,,,,,,
1560,Bor ,Gilbert,,,,,,,,,,,,,,,,,
1561,Chepkonga ,Beatrice,,,,,,,,,,,,,,,,,
1562,Kipruto ,Bramson,,,,,,,,,,,,,,,,,
1563,Omlua ,Elizabeth,,,,,,,,,,,,,,,,,
1564,Kibet ,Bethwel,,,,,,,,,,,,,,,,,
1565,Kimutai ,Brandon,,,,,,,,,,,,,,,,,
1566,Eripete ,Claudia,,,,,,,,,,,,,,,,,
1567,Garang ,Abraham,,,,,,,,,,,,,,,,,
1568,Korir ,Jenifer,,,,,,,,,,,,,,,,,
1569,Kurgat ,Eunice,,,,,,,,,,,,,,,,,
1570,Cherotich ,Brenda,,,,,,,,,,,,,,,,,
1571,Bosson ,Diana,,,,,,,,,,,,,,,,,
1572,Chemelil ,Elma,,,,,,,,,,,,,,,,,
1573,Jebichii ,Mary,,,,,,,,,,,,,,,,,
1574,Kiprono ,Titus,,,,,,,,,,,,,,,,,
1575,Chelangat ,Tamara,,,,,,,,,,,,,,,,,
1576,Wangui ,Ashley,,,,,,,,,,,,,,,,,
1577,Kenneth ,Butalia,,,,,,,,,,,,,,,,,
1578,Moraa ,Teresa,,,,,,,,,,,,,,,,,
1579,Wangare ,Alicia,,,,,,,,,,,,,,,,,
1580,Mwaniki ,Alex,,,,,,,,,,,,,,,,,
1581,Jemeli ,Joshaya,,,,,,,,,,,,,,,,,
1582,Korir ,Daisy,,,,,,,,,,,,,,,,,
1583,Kutto ,Thomas,,,,,,,,,,,,,,,,,
1584,Kipkemboi ,Nickson,,,,,,,,,,,,,,,,,
1586,Jepchirchir ,Naomi,,,,,,,,,,,,,,,,,
1587,Kimugul ,Faith,,,,,,,,,,,,,,,,,
1588,Koech ,Sasha,,,,,,,,,,,,,,,,,
1589,Jebet ,Beryan,,,,,,,,,,,,,,,,,
1590,Yotoi ,Karen,,,,,,,,,,,,,,,,,
1591,Jepkoech ,Hellen,,,,,,,,,,,,,,,,,
1592,Kibelio ,David,,,,,,,,,,,,,,,,,
1593,Chebet ,Elma,,,,,,,,,,,,,,,,,
1594,Alumande ,Gladys,,,,,,,,,,,,,,,,,
1595,Dindi ,Hellen,,,,,,,,,,,,,,,,,
1596,Neema Vadgama,Mrs,,,,,,,,,,,,,,,,,
1597,Bii ,Dennis,,,,,,,,,,,,,,,,,
1598,TALAAM ,Celestine,,,,,,,,,,,,,,,,,
1599,Boit ,Faith,,,,,,,,,,,,,,,,,
1600,Bartonjo ,Blinton,,,,,,,,,,,,,,,,,
1601,Muthoka ,Agatha,,,,,,,,,,,,,,,,,
1602,Tunoi ,Joyce,,,,,,,,,,,,,,,,,
1603,Jebet Kilimo,Mercy,,,,,,,,,,,,,,,,,
1604,Kipkoech ,Courtney,,,,,,,,,,,,,,,,,
1605,Dorcas ,Kiptoo,,,,,,,,,,,,,,,,,
1606,Kipruto ,Nicholas,,,,,,,,,,,,,,,,,
1607,Cherotich ,Caroline,,,,,,,,,,,,,,,,,
1608,Kisang ,Caroline,,,,,,,,,,,,,,,,,
1609,Jepkorir ,Caroline,,,,,,,,,,,,,,,,,
1610,Mohammed ,Abdi,,,,,,,,,,,,,,,,,
1611,Kiptoo ,Ian,,,,,,,,,,,,,,,,,
1612,Cherop ,Joan,,,,,,,,,,,,,,,,,
1613,Chepkirui ,Abigael,,,,,,,,,,,,,,,,,
1614,Koech ,Abigael,,,,,,,,,,,,,,,,,
1615,Jebet ,Fridah,,,,,,,,,,,,,,,,,
1616,Jelagat ,Mitchelle,,,,,,,,,,,,,,,,,
1617,Yussuf ,Mubina,,,,,,,,,,,,,,,,,
1618,Obina ,Leon,,,,,,,,,,,,,,,,,
1621,Hillary ,Abdiel,,,,,,,,,,,,,,,,,
1622,Muli ,Joachim,,,,,,,,,,,,,,,,,
1623,Mayison ,Philomena,,,,,,,,,,,,,,,,,
